0000.002 (0) Opened log file at time: Tue, 22 Dec 2020 16:42:31 +0000 on http://kifaayat.com
0000.008 (0) UpdraftPlus WordPress backup plugin (https://updraftplus.com): 1.16.29 WP: 5.5.3 PHP: 7.2.24-0ubuntu0.18.04.7 (apache2handler, Linux rethinkux 4.15.0-112-generic #113-Ubuntu SMP Thu Jul 9 23:41:39 UTC 2020 x86_64) MySQL: 5.7.32-0ubuntu0.18.04.1 WPLANG: en_US Server: Apache/2.4.29 (Ubuntu) safe_mode: 0 max_execution_time: 900 memory_limit: 256M (used: 72.8M | 36M) multisite: N openssl: OpenSSL 1.1.1  11 Sep 2018 mcrypt: N LANG: C ZipArchive::addFile: Y
0000.013 (0) Free space on disk containing Updraft's temporary directory: 12316.4 MB
0000.016 (0) Tasks: Backup files: 1 (schedule: daily) Backup DB:  (schedule: daily)
0000.017 (0) Processed schedules. Combining jobs from identical schedules. Tasks now: Backup files: 1 Backup DB: 1
0000.024 (0) Requesting semaphore lock (fd) (apparently via scheduler: last_scheduled_action_called_at=1608568754, seconds_ago=86597)
0000.029 (0) Set semaphore last lock (fd) time to 2020-12-22 16:42:31
0000.030 (0) Semaphore lock (fd) complete
0000.039 (0) Backup run: resumption=0, nonce=6370817a6395, file_nonce=6370817a6395 begun at=1608655351 (0s ago), job type=backup
0000.041 (0) Scheduling a resumption (1) after 300 seconds (1608655651) in case this run gets aborted
0000.054 (0) Checking if we have a zip executable available
0000.059 (0) Creation of backups of directories: beginning
0000.065 (0) Beginning creation of dump of plugins (split every: 400 MB)
0000.602 (0) Total entities for the zip file: 1899 directories, 10395 files (0 skipped as non-modified), 142.7 MB
0000.622 (0) Zip: backup_2020-12-22-1642_Kifaayat_6370817a6395-plugins.zip.tmp: 100 files added (on-disk size: 0 KB)
0000.632 (0) Zip: backup_2020-12-22-1642_Kifaayat_6370817a6395-plugins.zip.tmp: 200 files added (on-disk size: 0 KB)
0000.642 (0) Zip: backup_2020-12-22-1642_Kifaayat_6370817a6395-plugins.zip.tmp: 300 files added (on-disk size: 0 KB)
0000.652 (0) Zip: backup_2020-12-22-1642_Kifaayat_6370817a6395-plugins.zip.tmp: 400 files added (on-disk size: 0 KB)
0000.661 (0) Zip: backup_2020-12-22-1642_Kifaayat_6370817a6395-plugins.zip.tmp: 500 files added (on-disk size: 0 KB)
0000.662 (0) Adding batch to zip file (UpdraftPlus_ZipArchive): over 500 files added on this batch (7.3 MB, 10395 files batched, 501 (501) added so far); re-opening (prior size: 0 KB)
0001.691 (0) Zip: backup_2020-12-22-1642_Kifaayat_6370817a6395-plugins.zip.tmp: 600 files added (on-disk size: 1537.2 KB)
0001.696 (0) Zip: backup_2020-12-22-1642_Kifaayat_6370817a6395-plugins.zip.tmp: 700 files added (on-disk size: 1537.2 KB)
0001.702 (0) Zip: backup_2020-12-22-1642_Kifaayat_6370817a6395-plugins.zip.tmp: 800 files added (on-disk size: 1537.2 KB)
0001.707 (0) Zip: backup_2020-12-22-1642_Kifaayat_6370817a6395-plugins.zip.tmp: 900 files added (on-disk size: 1537.2 KB)
0001.713 (0) Zip: backup_2020-12-22-1642_Kifaayat_6370817a6395-plugins.zip.tmp: 1000 files added (on-disk size: 1537.2 KB)
0001.714 (0) Adding batch to zip file (UpdraftPlus_ZipArchive): over 500 files added on this batch (3.4 MB, 10395 files batched, 501 (1002) added so far); re-opening (prior size: 1537.2 KB)
0002.209 (0) Zip: backup_2020-12-22-1642_Kifaayat_6370817a6395-plugins.zip.tmp: 1100 files added (on-disk size: 2388.4 KB)
0002.219 (0) Zip: backup_2020-12-22-1642_Kifaayat_6370817a6395-plugins.zip.tmp: 1200 files added (on-disk size: 2388.4 KB)
0002.229 (0) Zip: backup_2020-12-22-1642_Kifaayat_6370817a6395-plugins.zip.tmp: 1300 files added (on-disk size: 2388.4 KB)
0002.236 (0) Zip: backup_2020-12-22-1642_Kifaayat_6370817a6395-plugins.zip.tmp: 1400 files added (on-disk size: 2388.4 KB)
0002.247 (0) Zip: backup_2020-12-22-1642_Kifaayat_6370817a6395-plugins.zip.tmp: 1500 files added (on-disk size: 2388.4 KB)
0002.250 (0) Adding batch to zip file (UpdraftPlus_ZipArchive): over 500 files added on this batch (9.9 MB, 10395 files batched, 501 (1503) added so far); re-opening (prior size: 2388.4 KB)
0003.363 (0) Zip: backup_2020-12-22-1642_Kifaayat_6370817a6395-plugins.zip.tmp: 1600 files added (on-disk size: 4706.8 KB)
0003.368 (0) Zip: backup_2020-12-22-1642_Kifaayat_6370817a6395-plugins.zip.tmp: 1700 files added (on-disk size: 4706.8 KB)
0003.374 (0) Zip: backup_2020-12-22-1642_Kifaayat_6370817a6395-plugins.zip.tmp: 1800 files added (on-disk size: 4706.8 KB)
0003.379 (0) Zip: backup_2020-12-22-1642_Kifaayat_6370817a6395-plugins.zip.tmp: 1900 files added (on-disk size: 4706.8 KB)
0003.384 (0) Zip: backup_2020-12-22-1642_Kifaayat_6370817a6395-plugins.zip.tmp: 2000 files added (on-disk size: 4706.8 KB)
0003.386 (0) Adding batch to zip file (UpdraftPlus_ZipArchive): over 500 files added on this batch (3.6 MB, 10395 files batched, 501 (2004) added so far); re-opening (prior size: 4706.8 KB)
0003.774 (0) Zip: backup_2020-12-22-1642_Kifaayat_6370817a6395-plugins.zip.tmp: 2100 files added (on-disk size: 5820.2 KB)
0003.780 (0) Zip: backup_2020-12-22-1642_Kifaayat_6370817a6395-plugins.zip.tmp: 2200 files added (on-disk size: 5820.2 KB)
0003.786 (0) Zip: backup_2020-12-22-1642_Kifaayat_6370817a6395-plugins.zip.tmp: 2300 files added (on-disk size: 5820.2 KB)
0003.792 (0) Zip: backup_2020-12-22-1642_Kifaayat_6370817a6395-plugins.zip.tmp: 2400 files added (on-disk size: 5820.2 KB)
0003.798 (0) Zip: backup_2020-12-22-1642_Kifaayat_6370817a6395-plugins.zip.tmp: 2500 files added (on-disk size: 5820.2 KB)
0003.800 (0) Adding batch to zip file (UpdraftPlus_ZipArchive): over 500 files added on this batch (1.2 MB, 10395 files batched, 501 (2505) added so far); re-opening (prior size: 5820.2 KB)
0003.993 (0) Zip: backup_2020-12-22-1642_Kifaayat_6370817a6395-plugins.zip.tmp: 2600 files added (on-disk size: 6581 KB)
0003.999 (0) Zip: backup_2020-12-22-1642_Kifaayat_6370817a6395-plugins.zip.tmp: 2700 files added (on-disk size: 6581 KB)
0004.005 (0) Zip: backup_2020-12-22-1642_Kifaayat_6370817a6395-plugins.zip.tmp: 2800 files added (on-disk size: 6581 KB)
0004.010 (0) Zip: backup_2020-12-22-1642_Kifaayat_6370817a6395-plugins.zip.tmp: 2900 files added (on-disk size: 6581 KB)
0004.016 (0) Zip: backup_2020-12-22-1642_Kifaayat_6370817a6395-plugins.zip.tmp: 3000 files added (on-disk size: 6581 KB)
0004.018 (0) Adding batch to zip file (UpdraftPlus_ZipArchive): over 500 files added on this batch (3.8 MB, 10395 files batched, 501 (3006) added so far); re-opening (prior size: 6581 KB)
0004.447 (0) Zip: backup_2020-12-22-1642_Kifaayat_6370817a6395-plugins.zip.tmp: 3100 files added (on-disk size: 8220.3 KB)
0004.453 (0) Zip: backup_2020-12-22-1642_Kifaayat_6370817a6395-plugins.zip.tmp: 3200 files added (on-disk size: 8220.3 KB)
0004.459 (0) Zip: backup_2020-12-22-1642_Kifaayat_6370817a6395-plugins.zip.tmp: 3300 files added (on-disk size: 8220.3 KB)
0004.465 (0) Zip: backup_2020-12-22-1642_Kifaayat_6370817a6395-plugins.zip.tmp: 3400 files added (on-disk size: 8220.3 KB)
0004.471 (0) Zip: backup_2020-12-22-1642_Kifaayat_6370817a6395-plugins.zip.tmp: 3500 files added (on-disk size: 8220.3 KB)
0004.474 (0) Adding batch to zip file (UpdraftPlus_ZipArchive): over 500 files added on this batch (3.9 MB, 10395 files batched, 501 (3507) added so far); re-opening (prior size: 8220.3 KB)
0004.968 (0) Zip: backup_2020-12-22-1642_Kifaayat_6370817a6395-plugins.zip.tmp: 3600 files added (on-disk size: 9981.8 KB)
0004.979 (0) Zip: backup_2020-12-22-1642_Kifaayat_6370817a6395-plugins.zip.tmp: 3700 files added (on-disk size: 9981.8 KB)
0004.990 (0) Zip: backup_2020-12-22-1642_Kifaayat_6370817a6395-plugins.zip.tmp: 3800 files added (on-disk size: 9981.8 KB)
0005.001 (0) Zip: backup_2020-12-22-1642_Kifaayat_6370817a6395-plugins.zip.tmp: 3900 files added (on-disk size: 9981.8 KB)
0005.012 (0) Zip: backup_2020-12-22-1642_Kifaayat_6370817a6395-plugins.zip.tmp: 4000 files added (on-disk size: 9981.8 KB)
0005.015 (0) Adding batch to zip file (UpdraftPlus_ZipArchive): over 500 files added on this batch (1.2 MB, 10395 files batched, 501 (4008) added so far); re-opening (prior size: 9981.8 KB)
0005.401 (0) Zip: backup_2020-12-22-1642_Kifaayat_6370817a6395-plugins.zip.tmp: 4100 files added (on-disk size: 10708.7 KB)
0005.408 (0) Zip: backup_2020-12-22-1642_Kifaayat_6370817a6395-plugins.zip.tmp: 4200 files added (on-disk size: 10708.7 KB)
0005.414 (0) Zip: backup_2020-12-22-1642_Kifaayat_6370817a6395-plugins.zip.tmp: 4300 files added (on-disk size: 10708.7 KB)
0005.420 (0) Zip: backup_2020-12-22-1642_Kifaayat_6370817a6395-plugins.zip.tmp: 4400 files added (on-disk size: 10708.7 KB)
0005.426 (0) Zip: backup_2020-12-22-1642_Kifaayat_6370817a6395-plugins.zip.tmp: 4500 files added (on-disk size: 10708.7 KB)
0005.428 (0) Adding batch to zip file (UpdraftPlus_ZipArchive): over 500 files added on this batch (1.3 MB, 10395 files batched, 501 (4509) added so far); re-opening (prior size: 10708.7 KB)
0005.747 (0) Zip: backup_2020-12-22-1642_Kifaayat_6370817a6395-plugins.zip.tmp: 4600 files added (on-disk size: 11405.3 KB)
0005.754 (0) Zip: backup_2020-12-22-1642_Kifaayat_6370817a6395-plugins.zip.tmp: 4700 files added (on-disk size: 11405.3 KB)
0005.760 (0) Zip: backup_2020-12-22-1642_Kifaayat_6370817a6395-plugins.zip.tmp: 4800 files added (on-disk size: 11405.3 KB)
0005.766 (0) Zip: backup_2020-12-22-1642_Kifaayat_6370817a6395-plugins.zip.tmp: 4900 files added (on-disk size: 11405.3 KB)
0005.772 (0) Zip: backup_2020-12-22-1642_Kifaayat_6370817a6395-plugins.zip.tmp: 5000 files added (on-disk size: 11405.3 KB)
0005.773 (0) Adding batch to zip file (UpdraftPlus_ZipArchive): over 500 files added on this batch (8.1 MB, 10395 files batched, 501 (5010) added so far); re-opening (prior size: 11405.3 KB)
0006.826 (0) Zip: backup_2020-12-22-1642_Kifaayat_6370817a6395-plugins.zip.tmp: 5100 files added (on-disk size: 14070.9 KB)
0006.832 (0) Zip: backup_2020-12-22-1642_Kifaayat_6370817a6395-plugins.zip.tmp: 5200 files added (on-disk size: 14070.9 KB)
0006.839 (0) Zip: backup_2020-12-22-1642_Kifaayat_6370817a6395-plugins.zip.tmp: 5300 files added (on-disk size: 14070.9 KB)
0006.845 (0) Zip: backup_2020-12-22-1642_Kifaayat_6370817a6395-plugins.zip.tmp: 5400 files added (on-disk size: 14070.9 KB)
0006.852 (0) Zip: backup_2020-12-22-1642_Kifaayat_6370817a6395-plugins.zip.tmp: 5500 files added (on-disk size: 14070.9 KB)
0006.853 (0) Adding batch to zip file (UpdraftPlus_ZipArchive): over 500 files added on this batch (1.6 MB, 10395 files batched, 501 (5511) added so far); re-opening (prior size: 14070.9 KB)
0007.277 (0) Zip: backup_2020-12-22-1642_Kifaayat_6370817a6395-plugins.zip.tmp: 5600 files added (on-disk size: 14802 KB)
0007.284 (0) Zip: backup_2020-12-22-1642_Kifaayat_6370817a6395-plugins.zip.tmp: 5700 files added (on-disk size: 14802 KB)
0007.290 (0) Zip: backup_2020-12-22-1642_Kifaayat_6370817a6395-plugins.zip.tmp: 5800 files added (on-disk size: 14802 KB)
0007.297 (0) Zip: backup_2020-12-22-1642_Kifaayat_6370817a6395-plugins.zip.tmp: 5900 files added (on-disk size: 14802 KB)
0007.303 (0) Zip: backup_2020-12-22-1642_Kifaayat_6370817a6395-plugins.zip.tmp: 6000 files added (on-disk size: 14802 KB)
0007.306 (0) Adding batch to zip file (UpdraftPlus_ZipArchive): over 500 files added on this batch (8.8 MB, 10395 files batched, 501 (6012) added so far); re-opening (prior size: 14802 KB)
0008.289 (0) Zip: backup_2020-12-22-1642_Kifaayat_6370817a6395-plugins.zip.tmp: 6100 files added (on-disk size: 18730.3 KB)
0008.303 (0) Zip: backup_2020-12-22-1642_Kifaayat_6370817a6395-plugins.zip.tmp: 6200 files added (on-disk size: 18730.3 KB)
0008.319 (0) Zip: backup_2020-12-22-1642_Kifaayat_6370817a6395-plugins.zip.tmp: 6300 files added (on-disk size: 18730.3 KB)
0008.334 (0) Zip: backup_2020-12-22-1642_Kifaayat_6370817a6395-plugins.zip.tmp: 6400 files added (on-disk size: 18730.3 KB)
0008.350 (0) Zip: backup_2020-12-22-1642_Kifaayat_6370817a6395-plugins.zip.tmp: 6500 files added (on-disk size: 18730.3 KB)
0008.352 (0) Adding batch to zip file (UpdraftPlus_ZipArchive): over 500 files added on this batch (6.8 MB, 10395 files batched, 501 (6513) added so far); re-opening (prior size: 18730.3 KB)
0009.549 (0) Zip: backup_2020-12-22-1642_Kifaayat_6370817a6395-plugins.zip.tmp: 6600 files added (on-disk size: 20376.4 KB)
0009.568 (0) Zip: backup_2020-12-22-1642_Kifaayat_6370817a6395-plugins.zip.tmp: 6700 files added (on-disk size: 20376.4 KB)
0009.582 (0) Zip: backup_2020-12-22-1642_Kifaayat_6370817a6395-plugins.zip.tmp: 6800 files added (on-disk size: 20376.4 KB)
0009.601 (0) Zip: backup_2020-12-22-1642_Kifaayat_6370817a6395-plugins.zip.tmp: 6900 files added (on-disk size: 20376.4 KB)
0009.617 (0) Zip: backup_2020-12-22-1642_Kifaayat_6370817a6395-plugins.zip.tmp: 7000 files added (on-disk size: 20376.4 KB)
0009.620 (0) Adding batch to zip file (UpdraftPlus_ZipArchive): over 500 files added on this batch (14.5 MB, 10395 files batched, 501 (7014) added so far); re-opening (prior size: 20376.4 KB)
0013.085 (0) Zip: backup_2020-12-22-1642_Kifaayat_6370817a6395-plugins.zip.tmp: 7100 files added (on-disk size: 25597.6 KB)
0013.110 (0) Zip: backup_2020-12-22-1642_Kifaayat_6370817a6395-plugins.zip.tmp: 7200 files added (on-disk size: 25597.6 KB)
0013.120 (0) Zip: backup_2020-12-22-1642_Kifaayat_6370817a6395-plugins.zip.tmp: 7300 files added (on-disk size: 25597.6 KB)
0013.133 (0) Zip: backup_2020-12-22-1642_Kifaayat_6370817a6395-plugins.zip.tmp: 7400 files added (on-disk size: 25597.6 KB)
0013.150 (0) Zip: backup_2020-12-22-1642_Kifaayat_6370817a6395-plugins.zip.tmp: 7500 files added (on-disk size: 25597.6 KB)
0013.155 (0) Adding batch to zip file (UpdraftPlus_ZipArchive): over 500 files added on this batch (17 MB, 10395 files batched, 501 (7515) added so far); re-opening (prior size: 25597.6 KB)
0015.380 (0) Zip: backup_2020-12-22-1642_Kifaayat_6370817a6395-plugins.zip.tmp: 7600 files added (on-disk size: 30118.4 KB)
0015.397 (0) Zip: backup_2020-12-22-1642_Kifaayat_6370817a6395-plugins.zip.tmp: 7700 files added (on-disk size: 30118.4 KB)
0015.407 (0) Zip: backup_2020-12-22-1642_Kifaayat_6370817a6395-plugins.zip.tmp: 7800 files added (on-disk size: 30118.4 KB)
0015.422 (0) Zip: backup_2020-12-22-1642_Kifaayat_6370817a6395-plugins.zip.tmp: 7900 files added (on-disk size: 30118.4 KB)
0015.434 (0) Zip: backup_2020-12-22-1642_Kifaayat_6370817a6395-plugins.zip.tmp: 8000 files added (on-disk size: 30118.4 KB)
0015.437 (0) Adding batch to zip file (UpdraftPlus_ZipArchive): over 500 files added on this batch (1.9 MB, 10395 files batched, 501 (8016) added so far); re-opening (prior size: 30118.4 KB)
0016.009 (0) Zip: backup_2020-12-22-1642_Kifaayat_6370817a6395-plugins.zip.tmp: 8100 files added (on-disk size: 30823.1 KB)
0016.027 (0) Zip: backup_2020-12-22-1642_Kifaayat_6370817a6395-plugins.zip.tmp: 8200 files added (on-disk size: 30823.1 KB)
0016.056 (0) Zip: backup_2020-12-22-1642_Kifaayat_6370817a6395-plugins.zip.tmp: 8300 files added (on-disk size: 30823.1 KB)
0016.077 (0) Zip: backup_2020-12-22-1642_Kifaayat_6370817a6395-plugins.zip.tmp: 8400 files added (on-disk size: 30823.1 KB)
0016.099 (0) Zip: backup_2020-12-22-1642_Kifaayat_6370817a6395-plugins.zip.tmp: 8500 files added (on-disk size: 30823.1 KB)
0016.105 (0) Adding batch to zip file (UpdraftPlus_ZipArchive): over 500 files added on this batch (10.4 MB, 10395 files batched, 501 (8517) added so far); re-opening (prior size: 30823.1 KB)
0017.288 (0) Zip: backup_2020-12-22-1642_Kifaayat_6370817a6395-plugins.zip.tmp: 8600 files added (on-disk size: 34654.1 KB)
0017.299 (0) Zip: backup_2020-12-22-1642_Kifaayat_6370817a6395-plugins.zip.tmp: 8700 files added (on-disk size: 34654.1 KB)
0017.310 (0) Zip: backup_2020-12-22-1642_Kifaayat_6370817a6395-plugins.zip.tmp: 8800 files added (on-disk size: 34654.1 KB)
0017.323 (0) Zip: backup_2020-12-22-1642_Kifaayat_6370817a6395-plugins.zip.tmp: 8900 files added (on-disk size: 34654.1 KB)
0017.339 (0) Zip: backup_2020-12-22-1642_Kifaayat_6370817a6395-plugins.zip.tmp: 9000 files added (on-disk size: 34654.1 KB)
0017.343 (0) Adding batch to zip file (UpdraftPlus_ZipArchive): over 500 files added on this batch (8 MB, 10395 files batched, 501 (9018) added so far); re-opening (prior size: 34654.1 KB)
0018.663 (0) Zip: backup_2020-12-22-1642_Kifaayat_6370817a6395-plugins.zip.tmp: 9100 files added (on-disk size: 37482.3 KB)
0018.690 (0) Zip: backup_2020-12-22-1642_Kifaayat_6370817a6395-plugins.zip.tmp: 9200 files added (on-disk size: 37482.3 KB)
0018.715 (0) Zip: backup_2020-12-22-1642_Kifaayat_6370817a6395-plugins.zip.tmp: 9300 files added (on-disk size: 37482.3 KB)
0018.732 (0) Zip: backup_2020-12-22-1642_Kifaayat_6370817a6395-plugins.zip.tmp: 9400 files added (on-disk size: 37482.3 KB)
0018.746 (0) Zip: backup_2020-12-22-1642_Kifaayat_6370817a6395-plugins.zip.tmp: 9500 files added (on-disk size: 37482.3 KB)
0018.750 (0) Adding batch to zip file (UpdraftPlus_ZipArchive): over 500 files added on this batch (16.5 MB, 10395 files batched, 501 (9519) added so far); re-opening (prior size: 37482.3 KB)
0021.234 (0) Zip: backup_2020-12-22-1642_Kifaayat_6370817a6395-plugins.zip.tmp: 9600 files added (on-disk size: 42811.5 KB)
0021.259 (0) Zip: backup_2020-12-22-1642_Kifaayat_6370817a6395-plugins.zip.tmp: 9700 files added (on-disk size: 42811.5 KB)
0021.271 (0) Zip: backup_2020-12-22-1642_Kifaayat_6370817a6395-plugins.zip.tmp: 9800 files added (on-disk size: 42811.5 KB)
0021.283 (0) Zip: backup_2020-12-22-1642_Kifaayat_6370817a6395-plugins.zip.tmp: 9900 files added (on-disk size: 42811.5 KB)
0021.298 (0) Zip: backup_2020-12-22-1642_Kifaayat_6370817a6395-plugins.zip.tmp: 10000 files added (on-disk size: 42811.5 KB)
0021.302 (0) Adding batch to zip file (UpdraftPlus_ZipArchive): over 500 files added on this batch (9.7 MB, 10395 files batched, 501 (10020) added so far); re-opening (prior size: 42811.5 KB)
0024.550 (0) Zip: backup_2020-12-22-1642_Kifaayat_6370817a6395-plugins.zip.tmp: 10100 files added (on-disk size: 46265.7 KB)
0024.560 (0) Zip: backup_2020-12-22-1642_Kifaayat_6370817a6395-plugins.zip.tmp: 10200 files added (on-disk size: 46265.7 KB)
0024.571 (0) Zip: backup_2020-12-22-1642_Kifaayat_6370817a6395-plugins.zip.tmp: 10300 files added (on-disk size: 46265.7 KB)
0026.763 (0) Created plugins zip (0) - 47813.2 KB in 26.7 s (1791 KB/s) (sha1: 41a4c2a595d89585c490ce5c9ebe98927d3aa340, sha256: e1a005dc3fae9e8dfce4aed3b921eaecf601e59d6ddd005097bdbb0a0aa84e0b)
0026.786 (0) Beginning creation of dump of themes (split every: 400 MB)
0026.848 (0) Total entities for the zip file: 139 directories, 606 files (0 skipped as non-modified), 4.7 MB
0026.863 (0) Zip: backup_2020-12-22-1642_Kifaayat_6370817a6395-themes.zip.tmp: 100 files added (on-disk size: 0 KB)
0026.880 (0) Zip: backup_2020-12-22-1642_Kifaayat_6370817a6395-themes.zip.tmp: 200 files added (on-disk size: 0 KB)
0026.895 (0) Zip: backup_2020-12-22-1642_Kifaayat_6370817a6395-themes.zip.tmp: 300 files added (on-disk size: 0 KB)
0026.917 (0) Zip: backup_2020-12-22-1642_Kifaayat_6370817a6395-themes.zip.tmp: 400 files added (on-disk size: 0 KB)
0026.952 (0) Zip: backup_2020-12-22-1642_Kifaayat_6370817a6395-themes.zip.tmp: 500 files added (on-disk size: 0 KB)
0026.954 (0) Adding batch to zip file (UpdraftPlus_ZipArchive): over 500 files added on this batch (4.7 MB, 606 files batched, 501 (501) added so far); re-opening (prior size: 0 KB)
0027.801 (0) Zip: backup_2020-12-22-1642_Kifaayat_6370817a6395-themes.zip.tmp: 600 files added (on-disk size: 1116.2 KB)
0027.909 (0) Created themes zip (0) - 1143.1 KB in 1.1 s (1026.2 KB/s) (sha1: b30d9dcdec2a90ee90693ac82e9c6015411e8475, sha256: 71cf3726555d39ea0d59c4b47912a14e2396f2a75428d00148d5d25cf5841598)
0027.916 (0) Exclusion option setting (uploads): backup*,*backups,backwpup*,wp-clone,snapshots
0027.917 (0) Looking for candidates to backup in: /var/www/temp/shavir/wp-content/uploads
0027.919 (0) finding files: 2020: adding to list (1)
0027.920 (0) finding files: essential-addons-elementor: adding to list (2)
0027.922 (0) finding files: ao_ccss: adding to list (3)
0027.923 (0) finding files: rank-math: adding to list (4)
0027.924 (0) finding files: elementor: adding to list (5)
0027.925 (0) Beginning creation of dump of uploads (split every: 400 MB)
0027.944 (0) Total entities for the zip file: 15 directories, 222 files (0 skipped as non-modified), 12.8 MB
0027.950 (0) Zip: backup_2020-12-22-1642_Kifaayat_6370817a6395-uploads.zip.tmp: 100 files added (on-disk size: 0 KB)
0027.976 (0) Zip: backup_2020-12-22-1642_Kifaayat_6370817a6395-uploads.zip.tmp: 200 files added (on-disk size: 0 KB)
0028.758 (0) Created uploads zip (0) - 11888.8 KB in 0.8 s (14307.9 KB/s) (sha1: 193e499e4a49787a76cbd1a5df04f1cd2d2c1efb, sha256: 62430103e4c3608d4d8b6246ecdff27b635807f03ac498ef6c1723ce61f6fb51)
0028.761 (0) Beginning backup of other directories found in the content directory (index: 0)
0028.762 (0) Exclusion option setting (others): upgrade,cache,updraft,backup*,*backups,mysql.sql,debug.log
0028.763 (0) Looking for candidates to backup in: /var/www/temp/shavir/wp-content
0028.764 (0) finding files: upgrade: skipping: excluded by options
0028.765 (0) finding files: themes: skipping: this is the themes directory
0028.765 (0) finding files: wflogs: adding to list (1)
0028.766 (0) finding files: plugins: skipping: this is the plugins directory
0028.767 (0) finding files: updraft: skipping: this is the updraft directory
0028.768 (0) finding files: languages: adding to list (2)
0028.769 (0) finding files: index.php: adding to list (3)
0028.770 (0) finding files: uploads: skipping: this is the uploads directory
0028.770 (0) finding files: cache: skipping: excluded by options
0028.771 (0) finding files: backup: skipping: excluded by options (glob)
0028.771 (0) finding files: autoptimize_404_handler.php: adding to list (4)
0028.776 (0) Total entities for the zip file: 3 directories, 32 files (0 skipped as non-modified), 8.9 MB
0032.422 (0) Created others zip (0) - 3293.5 KB in 3.6 s (902.4 KB/s) (sha1: 3b788a3eacda2cff411b7773c8ec2e955385b93e, sha256: ce8c62e60911df56d08c0ccf0530fb25f9174587641bb582127859132061ee22)
0032.426 (0) Saving backup status to database (elements: 8)
0032.437 (0) Beginning creation of database dump (WordPress DB)
0032.440 (0) SQL compatibility mode is: NO_ZERO_IN_DATE,ERROR_FOR_DIVISION_BY_ZERO,NO_AUTO_CREATE_USER,NO_ENGINE_SUBSTITUTION
0032.444 (0) Testing potential mysqldump binary: /usr/bin/mysqldump
0032.518 (0) Binary mysqldump: error (code: 2)
0032.585 (0) Table wp_options: Total expected rows (approximate): 395
0032.685 (0) Table wp_options: Rows added in this batch (start page: 0; next: finished): 397 in 0.10 seconds
0032.687 (0) Table wp_options: finishing file (backup_2020-12-22-1642_Kifaayat_6370817a6395-db-table-wp_options.table.gz - 126.3 KB)
0032.703 (0) Table wp_users: Total expected rows (approximate): 2
0032.707 (0) Table wp_users: Rows added in this batch (start page: 0; next: finished): 2 in 0.00 seconds
0032.709 (0) Table wp_users: finishing file (backup_2020-12-22-1642_Kifaayat_6370817a6395-db-table-wp_users.table.gz - 0.6 KB)
0032.735 (0) Table wp_usermeta: Total expected rows (approximate): 68
0032.739 (0) Table wp_usermeta: Rows added in this batch (start page: 0; next: finished): 74 in 0.00 seconds
0032.741 (0) Table wp_usermeta: finishing file (backup_2020-12-22-1642_Kifaayat_6370817a6395-db-table-wp_usermeta.table.gz - 2.4 KB)
0032.757 (0) Table wp_commentmeta: Total expected rows (approximate): 0
0032.762 (0) Table wp_commentmeta: Rows added in this batch (start page: 0; next: finished): 0 in 0.00 seconds
0032.764 (0) Table wp_commentmeta: finishing file (backup_2020-12-22-1642_Kifaayat_6370817a6395-db-table-wp_commentmeta.table.gz - 0.4 KB)
0032.779 (0) Table wp_comments: Total expected rows (approximate): 0
0032.784 (0) Table wp_comments: Rows added in this batch (start page: 0; next: finished): 1 in 0.00 seconds
0032.785 (0) Table wp_comments: finishing file (backup_2020-12-22-1642_Kifaayat_6370817a6395-db-table-wp_comments.table.gz - 0.7 KB)
0032.800 (0) Table wp_links: Total expected rows (approximate): 0
0032.804 (0) Table wp_links: Rows added in this batch (start page: 0; next: finished): 0 in 0.00 seconds
0032.805 (0) Table wp_links: finishing file (backup_2020-12-22-1642_Kifaayat_6370817a6395-db-table-wp_links.table.gz - 0.4 KB)
0032.813 (0) Table wp_postmeta: Total expected rows (approximate): 2418
0033.162 (0) Table wp_postmeta: Rows added in this batch (start page: 0; next: finished): 2976 in 0.35 seconds
0033.165 (0) Table wp_postmeta: finishing file (backup_2020-12-22-1642_Kifaayat_6370817a6395-db-table-wp_postmeta.table.gz - 759.1 KB)
0033.177 (0) Table wp_posts: Total expected rows (approximate): 490
0034.087 (0) Table wp_posts: Rows added in this batch (start page: 0; next: finished): 500 in 0.91 seconds
0034.090 (0) Table wp_posts: finishing file (backup_2020-12-22-1642_Kifaayat_6370817a6395-db-table-wp_posts.table.gz - 1875.5 KB)
0034.099 (0) Table wp_term_relationships: Total expected rows (approximate): 40
0034.102 (0) Table wp_term_relationships: Rows added in this batch (start page: 0; next: finished): 39 in 0.00 seconds
0034.104 (0) Table wp_term_relationships: finishing file (backup_2020-12-22-1642_Kifaayat_6370817a6395-db-table-wp_term_relationships.table.gz - 0.5 KB)
0034.111 (0) Table wp_term_taxonomy: Total expected rows (approximate): 20
0034.114 (0) Table wp_term_taxonomy: Rows added in this batch (start page: 0; next: finished): 20 in 0.00 seconds
0034.116 (0) Table wp_term_taxonomy: finishing file (backup_2020-12-22-1642_Kifaayat_6370817a6395-db-table-wp_term_taxonomy.table.gz - 0.6 KB)
0034.122 (0) Table wp_termmeta: Total expected rows (approximate): 0
0034.124 (0) Table wp_termmeta: Rows added in this batch (start page: 0; next: finished): 0 in 0.00 seconds
0034.125 (0) Table wp_termmeta: finishing file (backup_2020-12-22-1642_Kifaayat_6370817a6395-db-table-wp_termmeta.table.gz - 0.4 KB)
0034.131 (0) Table wp_terms: Total expected rows (approximate): 19
0034.134 (0) Table wp_terms: Rows added in this batch (start page: 0; next: finished): 20 in 0.00 seconds
0034.138 (0) Table wp_terms: finishing file (backup_2020-12-22-1642_Kifaayat_6370817a6395-db-table-wp_terms.table.gz - 0.6 KB)
0034.148 (0) Table wp_mlw_qm_audit_trail: Total expected rows (approximate): 2
0034.151 (0) Table wp_mlw_qm_audit_trail: Rows added in this batch (start page: 0; next: finished): 2 in 0.00 seconds
0034.152 (0) Table wp_mlw_qm_audit_trail: finishing file (backup_2020-12-22-1642_Kifaayat_6370817a6395-db-table-wp_mlw_qm_audit_trail.table.gz - 0.4 KB)
0034.162 (0) Table wp_mlw_questions: Total expected rows (approximate): 0
0034.165 (0) Table wp_mlw_questions: Rows added in this batch (start page: 0; next: finished): 1 in 0.00 seconds
0034.166 (0) Table wp_mlw_questions: finishing file (backup_2020-12-22-1642_Kifaayat_6370817a6395-db-table-wp_mlw_questions.table.gz - 0.6 KB)
0034.177 (0) Table wp_mlw_quizzes: Total expected rows (approximate): 0
0034.180 (0) Table wp_mlw_quizzes: Rows added in this batch (start page: 0; next: finished): 1 in 0.00 seconds
0034.182 (0) Table wp_mlw_quizzes: finishing file (backup_2020-12-22-1642_Kifaayat_6370817a6395-db-table-wp_mlw_quizzes.table.gz - 2.3 KB)
0034.192 (0) Table wp_mlw_results: Total expected rows (approximate): 0
0034.194 (0) Table wp_mlw_results: Rows added in this batch (start page: 0; next: finished): 0 in 0.00 seconds
0034.195 (0) Table wp_mlw_results: finishing file (backup_2020-12-22-1642_Kifaayat_6370817a6395-db-table-wp_mlw_results.table.gz - 0.4 KB)
0034.208 (0) Table wp_oses_attachments: Total expected rows (approximate): 0
0034.210 (0) Table wp_oses_attachments: Rows added in this batch (start page: 0; next: finished): 0 in 0.00 seconds
0034.211 (0) Table wp_oses_attachments: finishing file (backup_2020-12-22-1642_Kifaayat_6370817a6395-db-table-wp_oses_attachments.table.gz - 0.3 KB)
0034.217 (0) Table wp_oses_clicks: Total expected rows (approximate): 0
0034.221 (0) Table wp_oses_clicks: Rows added in this batch (start page: 0; next: finished): 0 in 0.00 seconds
0034.223 (0) Table wp_oses_clicks: finishing file (backup_2020-12-22-1642_Kifaayat_6370817a6395-db-table-wp_oses_clicks.table.gz - 0.4 KB)
0034.229 (0) Table wp_oses_email_attachments: Total expected rows (approximate): 0
0034.234 (0) Table wp_oses_email_attachments: Rows added in this batch (start page: 0; next: finished): 0 in 0.00 seconds
0034.240 (0) Table wp_oses_email_attachments: finishing file (backup_2020-12-22-1642_Kifaayat_6370817a6395-db-table-wp_oses_email_attachments.table.gz - 0.3 KB)
0034.249 (0) Table wp_oses_emails: Total expected rows (approximate): 37
0034.267 (0) Table wp_oses_emails: Rows added in this batch (start page: 0; next: finished): 37 in 0.02 seconds
0034.269 (0) Table wp_oses_emails: finishing file (backup_2020-12-22-1642_Kifaayat_6370817a6395-db-table-wp_oses_emails.table.gz - 19.7 KB)
0034.287 (0) Table wp_oses_failures: Total expected rows (approximate): 23
0034.292 (0) Table wp_oses_failures: Rows added in this batch (start page: 0; next: finished): 61 in 0.00 seconds
0034.294 (0) Table wp_oses_failures: finishing file (backup_2020-12-22-1642_Kifaayat_6370817a6395-db-table-wp_oses_failures.table.gz - 3.8 KB)
0034.299 (0) Table wp_oses_jobs: Total expected rows (approximate): 0
0034.302 (0) Table wp_oses_jobs: Rows added in this batch (start page: 0; next: finished): 0 in 0.00 seconds
0034.303 (0) Table wp_oses_jobs: finishing file (backup_2020-12-22-1642_Kifaayat_6370817a6395-db-table-wp_oses_jobs.table.gz - 0.4 KB)
0034.317 (0) Table wp_rank_math_404_logs: Total expected rows (approximate): 0
0034.319 (0) Table wp_rank_math_404_logs: Rows added in this batch (start page: 0; next: finished): 0 in 0.00 seconds
0034.321 (0) Table wp_rank_math_404_logs: finishing file (backup_2020-12-22-1642_Kifaayat_6370817a6395-db-table-wp_rank_math_404_logs.table.gz - 0.4 KB)
0034.330 (0) Table wp_rank_math_internal_links: Total expected rows (approximate): 14
0034.333 (0) Table wp_rank_math_internal_links: Rows added in this batch (start page: 0; next: finished): 14 in 0.00 seconds
0034.335 (0) Table wp_rank_math_internal_links: finishing file (backup_2020-12-22-1642_Kifaayat_6370817a6395-db-table-wp_rank_math_internal_links.table.gz - 0.7 KB)
0034.343 (0) Table wp_rank_math_internal_meta: Total expected rows (approximate): 10
0034.347 (0) Table wp_rank_math_internal_meta: Rows added in this batch (start page: 0; next: finished): 12 in 0.00 seconds
0034.349 (0) Table wp_rank_math_internal_meta: finishing file (backup_2020-12-22-1642_Kifaayat_6370817a6395-db-table-wp_rank_math_internal_meta.table.gz - 0.4 KB)
0034.362 (0) Table wp_rank_math_redirections: Total expected rows (approximate): 0
0034.365 (0) Table wp_rank_math_redirections: Rows added in this batch (start page: 0; next: finished): 0 in 0.00 seconds
0034.366 (0) Table wp_rank_math_redirections: finishing file (backup_2020-12-22-1642_Kifaayat_6370817a6395-db-table-wp_rank_math_redirections.table.gz - 0.4 KB)
0034.377 (0) Table wp_rank_math_redirections_cache: Total expected rows (approximate): 0
0034.379 (0) Table wp_rank_math_redirections_cache: Rows added in this batch (start page: 0; next: finished): 0 in 0.00 seconds
0034.380 (0) Table wp_rank_math_redirections_cache: finishing file (backup_2020-12-22-1642_Kifaayat_6370817a6395-db-table-wp_rank_math_redirections_cache.table.gz - 0.4 KB)
0034.388 (0) Table wp_rank_math_sc_analytics: Total expected rows (approximate): 0
0034.390 (0) Table wp_rank_math_sc_analytics: Rows added in this batch (start page: 0; next: finished): 0 in 0.00 seconds
0034.391 (0) Table wp_rank_math_sc_analytics: finishing file (backup_2020-12-22-1642_Kifaayat_6370817a6395-db-table-wp_rank_math_sc_analytics.table.gz - 0.4 KB)
0034.402 (0) Table wp_trp_dictionary_en_us_hi_in: Total expected rows (approximate): 59
0034.405 (0) Table wp_trp_dictionary_en_us_hi_in: Rows added in this batch (start page: 0; next: finished): 59 in 0.00 seconds
0034.408 (0) Table wp_trp_dictionary_en_us_hi_in: finishing file (backup_2020-12-22-1642_Kifaayat_6370817a6395-db-table-wp_trp_dictionary_en_us_hi_in.table.gz - 2.4 KB)
0034.419 (0) Table wp_trp_dictionary_en_us_pa_in: Total expected rows (approximate): 0
0034.421 (0) Table wp_trp_dictionary_en_us_pa_in: Rows added in this batch (start page: 0; next: finished): 0 in 0.00 seconds
0034.423 (0) Table wp_trp_dictionary_en_us_pa_in: finishing file (backup_2020-12-22-1642_Kifaayat_6370817a6395-db-table-wp_trp_dictionary_en_us_pa_in.table.gz - 0.4 KB)
0034.433 (0) Table wp_trp_gettext_en_us: Total expected rows (approximate): 563
0034.442 (0) Table wp_trp_gettext_en_us: Rows added in this batch (start page: 0; next: finished): 604 in 0.01 seconds
0034.443 (0) Table wp_trp_gettext_en_us: finishing file (backup_2020-12-22-1642_Kifaayat_6370817a6395-db-table-wp_trp_gettext_en_us.table.gz - 7 KB)
0034.455 (0) Table wp_trp_gettext_hi_in: Total expected rows (approximate): 541
0034.471 (0) Table wp_trp_gettext_hi_in: Rows added in this batch (start page: 0; next: finished): 541 in 0.01 seconds
0034.476 (0) Table wp_trp_gettext_hi_in: finishing file (backup_2020-12-22-1642_Kifaayat_6370817a6395-db-table-wp_trp_gettext_hi_in.table.gz - 6.8 KB)
0034.492 (0) Table wp_trp_gettext_pa_in: Total expected rows (approximate): 0
0034.494 (0) Table wp_trp_gettext_pa_in: Rows added in this batch (start page: 0; next: finished): 0 in 0.00 seconds
0034.495 (0) Table wp_trp_gettext_pa_in: finishing file (backup_2020-12-22-1642_Kifaayat_6370817a6395-db-table-wp_trp_gettext_pa_in.table.gz - 0.4 KB)
0034.508 (0) Table wp_trp_original_meta: Total expected rows (approximate): 33
0034.514 (0) Table wp_trp_original_meta: Rows added in this batch (start page: 0; next: finished): 33 in 0.00 seconds
0034.515 (0) Table wp_trp_original_meta: finishing file (backup_2020-12-22-1642_Kifaayat_6370817a6395-db-table-wp_trp_original_meta.table.gz - 0.6 KB)
0034.523 (0) Table wp_trp_original_strings: Total expected rows (approximate): 59
0034.526 (0) Table wp_trp_original_strings: Rows added in this batch (start page: 0; next: finished): 59 in 0.00 seconds
0034.528 (0) Table wp_trp_original_strings: finishing file (backup_2020-12-22-1642_Kifaayat_6370817a6395-db-table-wp_trp_original_strings.table.gz - 2.1 KB)
0034.533 (0) Table wp_wfblockediplog: Total expected rows (approximate): 558
0034.541 (0) Table wp_wfblockediplog: Rows added in this batch (start page: 0; next: finished): 522 in 0.01 seconds
0034.545 (0) Table wp_wfblockediplog: finishing file (backup_2020-12-22-1642_Kifaayat_6370817a6395-db-table-wp_wfblockediplog.table.gz - 4.7 KB)
0034.550 (0) Table wp_wfblocks7: Total expected rows (approximate): 10
0034.554 (0) Table wp_wfblocks7: Rows added in this batch (start page: 0; next: finished): 24 in 0.00 seconds
0034.555 (0) Table wp_wfblocks7: finishing file (backup_2020-12-22-1642_Kifaayat_6370817a6395-db-table-wp_wfblocks7.table.gz - 1 KB)
0034.559 (0) Table wp_wfconfig: Total expected rows (approximate): 236
0034.715 (0) Table wp_wfconfig: Rows added in this batch (start page: 0; next: finished): 260 in 0.15 seconds
0034.726 (0) Table wp_wfconfig: finishing file (backup_2020-12-22-1642_Kifaayat_6370817a6395-db-table-wp_wfconfig.table.gz - 423.3 KB)
0034.738 (0) Table wp_wfcrawlers: Total expected rows (approximate): 7
0034.742 (0) Table wp_wfcrawlers: Rows added in this batch (start page: 0; next: finished): 11 in 0.00 seconds
0034.743 (0) Table wp_wfcrawlers: finishing file (backup_2020-12-22-1642_Kifaayat_6370817a6395-db-table-wp_wfcrawlers.table.gz - 0.6 KB)
0034.750 (0) Table wp_wffilechanges: Total expected rows (approximate): 0
0034.754 (0) Table wp_wffilechanges: Rows added in this batch (start page: 0; next: finished): 0 in 0.00 seconds
0034.756 (0) Table wp_wffilechanges: finishing file (backup_2020-12-22-1642_Kifaayat_6370817a6395-db-table-wp_wffilechanges.table.gz - 0.3 KB)
0034.762 (0) Table wp_wffilemods: Total expected rows (approximate): 12379
0035.524 (0) Table wp_wffilemods: Rows added in this batch (start page: 0; next: finished): 12075 in 0.76 seconds
0035.526 (0) Table wp_wffilemods: finishing file (backup_2020-12-22-1642_Kifaayat_6370817a6395-db-table-wp_wffilemods.table.gz - 1193.7 KB)
0035.530 (0) Table wp_wfhits: Total expected rows (approximate): 1629
0035.596 (0) Table wp_wfhits: Rows added in this batch (start page: 0; next: finished): 1484 in 0.07 seconds
0035.598 (0) Table wp_wfhits: finishing file (backup_2020-12-22-1642_Kifaayat_6370817a6395-db-table-wp_wfhits.table.gz - 35.2 KB)
0035.606 (0) Table wp_wfhoover: Total expected rows (approximate): 0
0035.608 (0) Table wp_wfhoover: Rows added in this batch (start page: 0; next: finished): 0 in 0.00 seconds
0035.609 (0) Table wp_wfhoover: finishing file (backup_2020-12-22-1642_Kifaayat_6370817a6395-db-table-wp_wfhoover.table.gz - 0.3 KB)
0035.616 (0) Table wp_wfissues: Total expected rows (approximate): 18
0035.619 (0) Table wp_wfissues: Rows added in this batch (start page: 0; next: finished): 18 in 0.00 seconds
0035.620 (0) Table wp_wfissues: finishing file (backup_2020-12-22-1642_Kifaayat_6370817a6395-db-table-wp_wfissues.table.gz - 5.5 KB)
0035.632 (0) Table wp_wfknownfilelist: Total expected rows (approximate): 11935
0035.846 (0) Table wp_wfknownfilelist: Rows added in this batch (start page: 0; next: finished): 12075 in 0.21 seconds
0035.853 (0) Table wp_wfknownfilelist: finishing file (backup_2020-12-22-1642_Kifaayat_6370817a6395-db-table-wp_wfknownfilelist.table.gz - 120.3 KB)
0035.856 (0) Table wp_wflivetraffichuman: Total expected rows (approximate): 0
0035.859 (0) Table wp_wflivetraffichuman: Rows added in this batch (start page: 0; next: finished): 0 in 0.00 seconds
0035.860 (0) Table wp_wflivetraffichuman: finishing file (backup_2020-12-22-1642_Kifaayat_6370817a6395-db-table-wp_wflivetraffichuman.table.gz - 0.3 KB)
0035.865 (0) Table wp_wflocs: Total expected rows (approximate): 0
0035.869 (0) Table wp_wflocs: Rows added in this batch (start page: 0; next: finished): 0 in 0.00 seconds
0035.870 (0) Table wp_wflocs: finishing file (backup_2020-12-22-1642_Kifaayat_6370817a6395-db-table-wp_wflocs.table.gz - 0.4 KB)
0035.875 (0) Table wp_wflogins: Total expected rows (approximate): 2056
0035.940 (0) Table wp_wflogins: Rows added in this batch (start page: 0; next: finished): 2007 in 0.06 seconds
0035.946 (0) Table wp_wflogins: finishing file (backup_2020-12-22-1642_Kifaayat_6370817a6395-db-table-wp_wflogins.table.gz - 45.9 KB)
0035.950 (0) Table wp_wfls_2fa_secrets: Total expected rows (approximate): 0
0035.952 (0) Table wp_wfls_2fa_secrets: Rows added in this batch (start page: 0; next: finished): 0 in 0.00 seconds
0035.956 (0) Table wp_wfls_2fa_secrets: finishing file (backup_2020-12-22-1642_Kifaayat_6370817a6395-db-table-wp_wfls_2fa_secrets.table.gz - 0.4 KB)
0035.959 (0) Table wp_wfls_settings: Total expected rows (approximate): 17
0035.962 (0) Table wp_wfls_settings: Rows added in this batch (start page: 0; next: finished): 19 in 0.00 seconds
0035.963 (0) Table wp_wfls_settings: finishing file (backup_2020-12-22-1642_Kifaayat_6370817a6395-db-table-wp_wfls_settings.table.gz - 0.8 KB)
0035.971 (0) Table wp_wfnotifications: Total expected rows (approximate): 2
0035.974 (0) Table wp_wfnotifications: Rows added in this batch (start page: 0; next: finished): 5 in 0.00 seconds
0035.975 (0) Table wp_wfnotifications: finishing file (backup_2020-12-22-1642_Kifaayat_6370817a6395-db-table-wp_wfnotifications.table.gz - 0.6 KB)
0035.986 (0) Table wp_wfpendingissues: Total expected rows (approximate): 0
0035.989 (0) Table wp_wfpendingissues: Rows added in this batch (start page: 0; next: finished): 0 in 0.00 seconds
0035.990 (0) Table wp_wfpendingissues: finishing file (backup_2020-12-22-1642_Kifaayat_6370817a6395-db-table-wp_wfpendingissues.table.gz - 0.4 KB)
0035.996 (0) Table wp_wfreversecache: Total expected rows (approximate): 1
0035.999 (0) Table wp_wfreversecache: Rows added in this batch (start page: 0; next: finished): 0 in 0.00 seconds
0036.000 (0) Table wp_wfreversecache: finishing file (backup_2020-12-22-1642_Kifaayat_6370817a6395-db-table-wp_wfreversecache.table.gz - 0.3 KB)
0036.009 (0) Table wp_wfsnipcache: Total expected rows (approximate): 0
0036.015 (0) Table wp_wfsnipcache: Rows added in this batch (start page: 0; next: finished): 0 in 0.00 seconds
0036.019 (0) Table wp_wfsnipcache: finishing file (backup_2020-12-22-1642_Kifaayat_6370817a6395-db-table-wp_wfsnipcache.table.gz - 0.4 KB)
0036.033 (0) Table wp_wfstatus: Total expected rows (approximate): 933
0036.054 (0) Table wp_wfstatus: Rows added in this batch (start page: 0; next: finished): 943 in 0.02 seconds
0036.056 (0) Table wp_wfstatus: finishing file (backup_2020-12-22-1642_Kifaayat_6370817a6395-db-table-wp_wfstatus.table.gz - 15 KB)
0036.063 (0) Table wp_wftrafficrates: Total expected rows (approximate): 0
0036.070 (0) Table wp_wftrafficrates: Rows added in this batch (start page: 0; next: finished): 0 in 0.01 seconds
0036.071 (0) Table wp_wftrafficrates: finishing file (backup_2020-12-22-1642_Kifaayat_6370817a6395-db-table-wp_wftrafficrates.table.gz - 0.3 KB)
0036.075 (0) backup_2020-12-22-1642_Kifaayat_6370817a6395-db-table-wp_options.table.gz (1/56): adding to final database dump
0036.151 (0) backup_2020-12-22-1642_Kifaayat_6370817a6395-db-table-wp_users.table.gz (2/56): adding to final database dump
0036.161 (0) backup_2020-12-22-1642_Kifaayat_6370817a6395-db-table-wp_usermeta.table.gz (3/56): adding to final database dump
0036.162 (0) backup_2020-12-22-1642_Kifaayat_6370817a6395-db-table-wp_commentmeta.table.gz (4/56): adding to final database dump
0036.164 (0) backup_2020-12-22-1642_Kifaayat_6370817a6395-db-table-wp_comments.table.gz (5/56): adding to final database dump
0036.166 (0) backup_2020-12-22-1642_Kifaayat_6370817a6395-db-table-wp_links.table.gz (6/56): adding to final database dump
0036.166 (0) backup_2020-12-22-1642_Kifaayat_6370817a6395-db-table-wp_postmeta.table.gz (7/56): adding to final database dump
0036.803 (0) backup_2020-12-22-1642_Kifaayat_6370817a6395-db-table-wp_posts.table.gz (8/56): adding to final database dump
0037.945 (0) backup_2020-12-22-1642_Kifaayat_6370817a6395-db-table-wp_term_relationships.table.gz (9/56): adding to final database dump
0037.954 (0) backup_2020-12-22-1642_Kifaayat_6370817a6395-db-table-wp_term_taxonomy.table.gz (10/56): adding to final database dump
0037.955 (0) backup_2020-12-22-1642_Kifaayat_6370817a6395-db-table-wp_termmeta.table.gz (11/56): adding to final database dump
0037.957 (0) backup_2020-12-22-1642_Kifaayat_6370817a6395-db-table-wp_terms.table.gz (12/56): adding to final database dump
0037.958 (0) backup_2020-12-22-1642_Kifaayat_6370817a6395-db-table-wp_mlw_qm_audit_trail.table.gz (13/56): adding to final database dump
0037.959 (0) backup_2020-12-22-1642_Kifaayat_6370817a6395-db-table-wp_mlw_questions.table.gz (14/56): adding to final database dump
0037.959 (0) backup_2020-12-22-1642_Kifaayat_6370817a6395-db-table-wp_mlw_quizzes.table.gz (15/56): adding to final database dump
0037.961 (0) backup_2020-12-22-1642_Kifaayat_6370817a6395-db-table-wp_mlw_results.table.gz (16/56): adding to final database dump
0037.964 (0) backup_2020-12-22-1642_Kifaayat_6370817a6395-db-table-wp_oses_attachments.table.gz (17/56): adding to final database dump
0037.967 (0) backup_2020-12-22-1642_Kifaayat_6370817a6395-db-table-wp_oses_clicks.table.gz (18/56): adding to final database dump
0037.969 (0) backup_2020-12-22-1642_Kifaayat_6370817a6395-db-table-wp_oses_email_attachments.table.gz (19/56): adding to final database dump
0037.970 (0) backup_2020-12-22-1642_Kifaayat_6370817a6395-db-table-wp_oses_emails.table.gz (20/56): adding to final database dump
0037.985 (0) backup_2020-12-22-1642_Kifaayat_6370817a6395-db-table-wp_oses_failures.table.gz (21/56): adding to final database dump
0037.988 (0) backup_2020-12-22-1642_Kifaayat_6370817a6395-db-table-wp_oses_jobs.table.gz (22/56): adding to final database dump
0037.989 (0) backup_2020-12-22-1642_Kifaayat_6370817a6395-db-table-wp_rank_math_404_logs.table.gz (23/56): adding to final database dump
0037.990 (0) backup_2020-12-22-1642_Kifaayat_6370817a6395-db-table-wp_rank_math_internal_links.table.gz (24/56): adding to final database dump
0037.991 (0) backup_2020-12-22-1642_Kifaayat_6370817a6395-db-table-wp_rank_math_internal_meta.table.gz (25/56): adding to final database dump
0037.996 (0) backup_2020-12-22-1642_Kifaayat_6370817a6395-db-table-wp_rank_math_redirections.table.gz (26/56): adding to final database dump
0037.997 (0) backup_2020-12-22-1642_Kifaayat_6370817a6395-db-table-wp_rank_math_redirections_cache.table.gz (27/56): adding to final database dump
0037.999 (0) backup_2020-12-22-1642_Kifaayat_6370817a6395-db-table-wp_rank_math_sc_analytics.table.gz (28/56): adding to final database dump
0038.000 (0) backup_2020-12-22-1642_Kifaayat_6370817a6395-db-table-wp_trp_dictionary_en_us_hi_in.table.gz (29/56): adding to final database dump
0038.001 (0) backup_2020-12-22-1642_Kifaayat_6370817a6395-db-table-wp_trp_dictionary_en_us_pa_in.table.gz (30/56): adding to final database dump
0038.002 (0) backup_2020-12-22-1642_Kifaayat_6370817a6395-db-table-wp_trp_gettext_en_us.table.gz (31/56): adding to final database dump
0038.004 (0) backup_2020-12-22-1642_Kifaayat_6370817a6395-db-table-wp_trp_gettext_hi_in.table.gz (32/56): adding to final database dump
0038.011 (0) backup_2020-12-22-1642_Kifaayat_6370817a6395-db-table-wp_trp_gettext_pa_in.table.gz (33/56): adding to final database dump
0038.013 (0) backup_2020-12-22-1642_Kifaayat_6370817a6395-db-table-wp_trp_original_meta.table.gz (34/56): adding to final database dump
0038.016 (0) backup_2020-12-22-1642_Kifaayat_6370817a6395-db-table-wp_trp_original_strings.table.gz (35/56): adding to final database dump
0038.017 (0) backup_2020-12-22-1642_Kifaayat_6370817a6395-db-table-wp_wfblockediplog.table.gz (36/56): adding to final database dump
0038.020 (0) backup_2020-12-22-1642_Kifaayat_6370817a6395-db-table-wp_wfblocks7.table.gz (37/56): adding to final database dump
0038.024 (0) backup_2020-12-22-1642_Kifaayat_6370817a6395-db-table-wp_wfconfig.table.gz (38/56): adding to final database dump
0038.193 (0) backup_2020-12-22-1642_Kifaayat_6370817a6395-db-table-wp_wfcrawlers.table.gz (39/56): adding to final database dump
0038.198 (0) backup_2020-12-22-1642_Kifaayat_6370817a6395-db-table-wp_wffilechanges.table.gz (40/56): adding to final database dump
0038.200 (0) backup_2020-12-22-1642_Kifaayat_6370817a6395-db-table-wp_wffilemods.table.gz (41/56): adding to final database dump
0038.563 (0) backup_2020-12-22-1642_Kifaayat_6370817a6395-db-table-wp_wfhits.table.gz (42/56): adding to final database dump
0038.585 (0) backup_2020-12-22-1642_Kifaayat_6370817a6395-db-table-wp_wfhoover.table.gz (43/56): adding to final database dump
0038.586 (0) backup_2020-12-22-1642_Kifaayat_6370817a6395-db-table-wp_wfissues.table.gz (44/56): adding to final database dump
0038.588 (0) backup_2020-12-22-1642_Kifaayat_6370817a6395-db-table-wp_wfknownfilelist.table.gz (45/56): adding to final database dump
0038.644 (0) backup_2020-12-22-1642_Kifaayat_6370817a6395-db-table-wp_wflivetraffichuman.table.gz (46/56): adding to final database dump
0038.646 (0) backup_2020-12-22-1642_Kifaayat_6370817a6395-db-table-wp_wflocs.table.gz (47/56): adding to final database dump
0038.647 (0) backup_2020-12-22-1642_Kifaayat_6370817a6395-db-table-wp_wflogins.table.gz (48/56): adding to final database dump
0038.665 (0) backup_2020-12-22-1642_Kifaayat_6370817a6395-db-table-wp_wfls_2fa_secrets.table.gz (49/56): adding to final database dump
0038.667 (0) backup_2020-12-22-1642_Kifaayat_6370817a6395-db-table-wp_wfls_settings.table.gz (50/56): adding to final database dump
0038.668 (0) backup_2020-12-22-1642_Kifaayat_6370817a6395-db-table-wp_wfnotifications.table.gz (51/56): adding to final database dump
0038.669 (0) backup_2020-12-22-1642_Kifaayat_6370817a6395-db-table-wp_wfpendingissues.table.gz (52/56): adding to final database dump
0038.669 (0) backup_2020-12-22-1642_Kifaayat_6370817a6395-db-table-wp_wfreversecache.table.gz (53/56): adding to final database dump
0038.672 (0) backup_2020-12-22-1642_Kifaayat_6370817a6395-db-table-wp_wfsnipcache.table.gz (54/56): adding to final database dump
0038.673 (0) backup_2020-12-22-1642_Kifaayat_6370817a6395-db-table-wp_wfstatus.table.gz (55/56): adding to final database dump
0038.677 (0) backup_2020-12-22-1642_Kifaayat_6370817a6395-db-table-wp_wftrafficrates.table.gz (56/56): adding to final database dump
0038.706 (0) backup_2020-12-22-1642_Kifaayat_6370817a6395-db.gz: finished writing out complete database file (4632 KB)
0038.818 (0) Total database tables backed up: 56 (backup_2020-12-22-1642_Kifaayat_6370817a6395-db.gz, size: 4767861, sha1: a984c840a58cb661797ddf99c2b10306c25f704c, sha256: 385151c78f5ae235fedc81debdfa0b5ce69918ff472c09fe62e0965f41747b7d)
0038.826 (0) backup_2020-12-22-1642_Kifaayat_6370817a6395-plugins.zip: plugins: This file has not yet been successfully uploaded: will queue
0038.826 (0) backup_2020-12-22-1642_Kifaayat_6370817a6395-themes.zip: themes: This file has not yet been successfully uploaded: will queue
0038.828 (0) backup_2020-12-22-1642_Kifaayat_6370817a6395-uploads.zip: uploads: This file has not yet been successfully uploaded: will queue
0038.829 (0) backup_2020-12-22-1642_Kifaayat_6370817a6395-others.zip: others: This file has not yet been successfully uploaded: will queue
0038.829 (0) backup_2020-12-22-1642_Kifaayat_6370817a6395-db.gz: db: This file has not yet been successfully uploaded: will queue
0038.830 (0) Saving backup history. Total backup size: 67.2 MB
0038.832 (0) Requesting upload of the files that have not yet been successfully uploaded (5)
0038.834 (0) Cloud backup selection (1/1): googledrive with instance (1/1) (last)
0038.837 (0) Beginning dispatch of backup to remote (googledrive) (instance identifier s-3e1e452c2c0818adac8563337ed8f853)
0040.838 (0) Google Drive: quota usage: used=6990.6 MB, total=15360 MB, available=8369.4 MB
0040.839 (0) Google Drive: backup_2020-12-22-1642_Kifaayat_6370817a6395-plugins.zip: Attempting to upload to Google Drive (into folder id: 13_--GvYo1wXf2na5M2nEm3Az5xyKvH0W)
0041.530 (0) Googledrive chunked upload: 2.1 % uploaded (1048576)
0041.878 (0) Googledrive chunked upload: 4.3 % uploaded (2097152)
0042.203 (0) Googledrive chunked upload: 6.4 % uploaded (3145728)
0042.577 (0) Googledrive chunked upload: 8.6 % uploaded (4194304)
0042.904 (0) Googledrive chunked upload: 10.7 % uploaded (5242880)
0043.303 (0) Googledrive chunked upload: 12.9 % uploaded (6291456)
0043.635 (0) Googledrive chunked upload: 15 % uploaded (7340032)
0043.995 (0) Googledrive chunked upload: 17.1 % uploaded (8388608)
0044.481 (0) Googledrive chunked upload: 19.3 % uploaded (9437184)
0044.824 (0) Googledrive chunked upload: 21.4 % uploaded (10485760)
0045.203 (0) Googledrive chunked upload: 23.6 % uploaded (11534336)
0045.542 (0) Googledrive chunked upload: 25.7 % uploaded (12582912)
0045.917 (0) Googledrive chunked upload: 27.8 % uploaded (13631488)
0046.262 (0) Googledrive chunked upload: 30 % uploaded (14680064)
0046.762 (0) Googledrive chunked upload: 32.1 % uploaded (15728640)
0047.117 (0) Googledrive chunked upload: 34.3 % uploaded (16777216)
0047.466 (0) Googledrive chunked upload: 36.4 % uploaded (17825792)
0047.842 (0) Googledrive chunked upload: 38.6 % uploaded (18874368)
0048.193 (0) Googledrive chunked upload: 40.7 % uploaded (19922944)
0048.538 (0) Googledrive chunked upload: 42.8 % uploaded (20971520)
0048.893 (0) Googledrive chunked upload: 45 % uploaded (22020096)
0049.238 (0) Googledrive chunked upload: 47.1 % uploaded (23068672)
0049.586 (0) Googledrive chunked upload: 49.3 % uploaded (24117248)
0049.941 (0) Googledrive chunked upload: 51.4 % uploaded (25165824)
0050.418 (0) Googledrive chunked upload: 53.5 % uploaded (26214400)
0050.799 (0) Googledrive chunked upload: 55.7 % uploaded (27262976)
0051.153 (0) Googledrive chunked upload: 57.8 % uploaded (28311552)
0051.505 (0) Googledrive chunked upload: 60 % uploaded (29360128)
0051.858 (0) Googledrive chunked upload: 62.1 % uploaded (30408704)
0052.254 (0) Googledrive chunked upload: 64.3 % uploaded (31457280)
0052.595 (0) Googledrive chunked upload: 66.4 % uploaded (32505856)
0052.955 (0) Googledrive chunked upload: 68.5 % uploaded (33554432)
0053.304 (0) Googledrive chunked upload: 70.7 % uploaded (34603008)
0053.642 (0) Googledrive chunked upload: 72.8 % uploaded (35651584)
0054.006 (0) Googledrive chunked upload: 75 % uploaded (36700160)
0054.347 (0) Googledrive chunked upload: 77.1 % uploaded (37748736)
0054.663 (0) Googledrive chunked upload: 79.2 % uploaded (38797312)
0054.961 (0) Googledrive chunked upload: 81.4 % uploaded (39845888)
0055.307 (0) Googledrive chunked upload: 83.5 % uploaded (40894464)
0055.649 (0) Googledrive chunked upload: 85.7 % uploaded (41943040)
0055.992 (0) Googledrive chunked upload: 87.8 % uploaded (42991616)
0056.346 (0) Googledrive chunked upload: 90 % uploaded (44040192)
0056.700 (0) Googledrive chunked upload: 92.1 % uploaded (45088768)
0057.086 (0) Googledrive chunked upload: 94.2 % uploaded (46137344)
0057.442 (0) Googledrive chunked upload: 96.4 % uploaded (47185920)
0057.810 (0) Googledrive chunked upload: 98.5 % uploaded (48234496)
0059.737 (0) Googledrive chunked upload: 100 % uploaded (48234496)
0059.740 (0) Google Drive: OK: Archive backup_2020-12-22-1642_Kifaayat_6370817a6395-plugins.zip uploaded in 18.9 seconds
0059.741 (0) Recording as successfully uploaded: backup_2020-12-22-1642_Kifaayat_6370817a6395-plugins.zip
0059.746 (0) Deleting local file: backup_2020-12-22-1642_Kifaayat_6370817a6395-plugins.zip: OK
0059.922 (0) Google Drive: quota usage: used=7037.3 MB, total=15360 MB, available=8322.7 MB
0059.925 (0) Google Drive: backup_2020-12-22-1642_Kifaayat_6370817a6395-themes.zip: Attempting to upload to Google Drive (into folder id: 13_--GvYo1wXf2na5M2nEm3Az5xyKvH0W)
0060.600 (0) Googledrive chunked upload: 89.6 % uploaded (1048576)
0061.669 (0) Googledrive chunked upload: 100 % uploaded (1048576)
0061.671 (0) Google Drive: OK: Archive backup_2020-12-22-1642_Kifaayat_6370817a6395-themes.zip uploaded in 1.75 seconds
0061.673 (0) Recording as successfully uploaded: backup_2020-12-22-1642_Kifaayat_6370817a6395-themes.zip
0061.675 (0) Deleting local file: backup_2020-12-22-1642_Kifaayat_6370817a6395-themes.zip: OK
0061.855 (0) Google Drive: quota usage: used=7037.3 MB, total=15360 MB, available=8322.7 MB
0061.857 (0) Google Drive: backup_2020-12-22-1642_Kifaayat_6370817a6395-uploads.zip: Attempting to upload to Google Drive (into folder id: 13_--GvYo1wXf2na5M2nEm3Az5xyKvH0W)
0062.541 (0) Googledrive chunked upload: 8.6 % uploaded (1048576)
0062.886 (0) Googledrive chunked upload: 17.2 % uploaded (2097152)
0063.211 (0) Googledrive chunked upload: 25.8 % uploaded (3145728)
0063.554 (0) Googledrive chunked upload: 34.5 % uploaded (4194304)
0064.025 (0) Googledrive chunked upload: 43.1 % uploaded (5242880)
0064.362 (0) Googledrive chunked upload: 51.7 % uploaded (6291456)
0064.672 (0) Googledrive chunked upload: 60.3 % uploaded (7340032)
0065.012 (0) Googledrive chunked upload: 68.9 % uploaded (8388608)
0065.370 (0) Googledrive chunked upload: 77.5 % uploaded (9437184)
0065.759 (0) Googledrive chunked upload: 86.1 % uploaded (10485760)
0066.110 (0) Googledrive chunked upload: 94.7 % uploaded (11534336)
0067.366 (0) Googledrive chunked upload: 100 % uploaded (11534336)
0067.375 (0) Google Drive: OK: Archive backup_2020-12-22-1642_Kifaayat_6370817a6395-uploads.zip uploaded in 5.52 seconds
0067.376 (0) Recording as successfully uploaded: backup_2020-12-22-1642_Kifaayat_6370817a6395-uploads.zip
0067.378 (0) Deleting local file: backup_2020-12-22-1642_Kifaayat_6370817a6395-uploads.zip: OK
0067.555 (0) Google Drive: quota usage: used=7050 MB, total=15360 MB, available=8310 MB
0067.557 (0) Google Drive: backup_2020-12-22-1642_Kifaayat_6370817a6395-others.zip: Attempting to upload to Google Drive (into folder id: 13_--GvYo1wXf2na5M2nEm3Az5xyKvH0W)
0068.359 (0) Googledrive chunked upload: 31.1 % uploaded (1048576)
0068.730 (0) Googledrive chunked upload: 62.2 % uploaded (2097152)
0069.070 (0) Googledrive chunked upload: 93.3 % uploaded (3145728)
0070.079 (0) Googledrive chunked upload: 100 % uploaded (3145728)
0070.084 (0) Google Drive: OK: Archive backup_2020-12-22-1642_Kifaayat_6370817a6395-others.zip uploaded in 2.53 seconds
0070.085 (0) Recording as successfully uploaded: backup_2020-12-22-1642_Kifaayat_6370817a6395-others.zip
0070.087 (0) Deleting local file: backup_2020-12-22-1642_Kifaayat_6370817a6395-others.zip: OK
0070.275 (0) Google Drive: quota usage: used=7053.2 MB, total=15360 MB, available=8306.8 MB
0070.277 (0) Google Drive: backup_2020-12-22-1642_Kifaayat_6370817a6395-db.gz: Attempting to upload to Google Drive (into folder id: 13_--GvYo1wXf2na5M2nEm3Az5xyKvH0W)
0070.963 (0) Googledrive chunked upload: 22 % uploaded (1048576)
0071.291 (0) Googledrive chunked upload: 44 % uploaded (2097152)
0071.685 (0) Googledrive chunked upload: 66 % uploaded (3145728)
0072.094 (0) Googledrive chunked upload: 88 % uploaded (4194304)
0073.594 (0) Googledrive chunked upload: 100 % uploaded (4194304)
0073.599 (0) Google Drive: OK: Archive backup_2020-12-22-1642_Kifaayat_6370817a6395-db.gz uploaded in 3.32 seconds
0073.600 (0) Recording as successfully uploaded: backup_2020-12-22-1642_Kifaayat_6370817a6395-db.gz
0073.603 (0) Deleting local file: backup_2020-12-22-1642_Kifaayat_6370817a6395-db.gz: OK
0073.606 (0) Retain: beginning examination of existing backup sets; user setting: retain_files=2, retain_db=2
0073.607 (0) Number of backup sets in history: 4; groups (db): 1
0073.608 (0) Examining (for databases) backup set with group_id=0, nonce=6370817a6395, datestamp=1608655351 (Dec 22 2020 16:42:31)
0073.609 (0) This backup set is the backup set just made, so will not be deleted.
0073.609 (0) Examining (for databases) backup set with group_id=0, nonce=6a91ad008832, datestamp=1608568754 (Dec 21 2020 16:39:14)
0073.609 (0) This backup set remains non-empty (f=1/d=1); will retain in history
0073.610 (0) Examining (for databases) backup set with group_id=0, nonce=43ebab9d178e, datestamp=1608483396 (Dec 20 2020 16:56:36)
0073.610 (0) 1608483396: db: this set includes a database (backup_2020-12-20-1656_Kifaayat_43ebab9d178e-db.gz); db count is now 2
0073.610 (0) 1608483396: db: over retain limit (2); will delete this database
0073.610 (0) Delete file: backup_2020-12-20-1656_Kifaayat_43ebab9d178e-db.gz, service=googledrive
0076.446 (0) Google Drive: backup_2020-12-20-1656_Kifaayat_43ebab9d178e-db.gz: Deletion successful
0076.450 (0) This backup set remains non-empty (f=1/d=0); will retain in history
0076.450 (0) Examining (for databases) backup set with group_id=0, nonce=a7c16db513a1, datestamp=1599755640 (Sep 10 2020 16:34:00)
0076.450 (0) This backup set (1599755640) was an 'Always Keep' backup, so it will not be pruned. Skipping.
0076.450 (0) Number of backup sets in history: 4; groups (files): 1
0076.451 (0) Examining (for files) backup set with nonce=6370817a6395, datestamp=1608655351 (Dec 22 2020 16:42:31)
0076.451 (0) This backup set is the backup set just made, so will not be deleted.
0076.451 (0) This backup set is the backup set just made, so will not be deleted.
0076.451 (0) This backup set is the backup set just made, so will not be deleted.
0076.451 (0) This backup set is the backup set just made, so will not be deleted.
0076.451 (0) This backup set remains non-empty (f=1/d=1); will retain in history
0076.452 (0) Examining (for files) backup set with nonce=6a91ad008832, datestamp=1608568754 (Dec 21 2020 16:39:14)
0076.452 (0) This backup set remains non-empty (f=1/d=1); will retain in history
0076.452 (0) Examining (for files) backup set with nonce=43ebab9d178e, datestamp=1608483396 (Dec 20 2020 16:56:36)
0076.452 (0) plugins: over retain limit (2); will delete this file entity
0076.452 (0) themes: over retain limit (2); will delete this file entity
0076.452 (0) uploads: over retain limit (2); will delete this file entity
0076.452 (0) others: over retain limit (2); will delete this file entity
0076.452 (0) Delete file: backup_2020-12-20-1656_Kifaayat_43ebab9d178e-plugins.zip, service=googledrive
0076.453 (0) Delete file: backup_2020-12-20-1656_Kifaayat_43ebab9d178e-themes.zip, service=googledrive
0076.453 (0) Delete file: backup_2020-12-20-1656_Kifaayat_43ebab9d178e-uploads.zip, service=googledrive
0076.454 (0) Delete file: backup_2020-12-20-1656_Kifaayat_43ebab9d178e-others.zip, service=googledrive
0077.426 (0) Google Drive: backup_2020-12-20-1656_Kifaayat_43ebab9d178e-others.zip: Deletion successful
0077.857 (0) Google Drive: backup_2020-12-20-1656_Kifaayat_43ebab9d178e-uploads.zip: Deletion successful
0078.380 (0) Google Drive: backup_2020-12-20-1656_Kifaayat_43ebab9d178e-themes.zip: Deletion successful
0078.857 (0) Google Drive: backup_2020-12-20-1656_Kifaayat_43ebab9d178e-plugins.zip: Deletion successful
0078.860 (0) This backup set is now empty; will remove from history
0078.861 (0) Deleting log file (log.43ebab9d178e.txt)
0078.862 (0) Examining (for files) backup set with nonce=a7c16db513a1, datestamp=1599755640 (Sep 10 2020 16:34:00)
0078.862 (0) This backup set (1599755640) was an 'Always Keep' backup, so it will not be pruned. Skipping.
0078.862 (0) This backup set (1599755640) was an 'Always Keep' backup, so it will not be pruned. Skipping.
0078.862 (0) This backup set (1599755640) was an 'Always Keep' backup, so it will not be pruned. Skipping.
0078.862 (0) This backup set (1599755640) was an 'Always Keep' backup, so it will not be pruned. Skipping.
0078.862 (0) This backup set remains non-empty (f=1/d=1); will retain in history
0078.863 (0) Retain: saving new backup history (sets now: 3) and finishing retain operation
0078.866 (0) Resume backup (6370817a6395, 0): finish run
0078.870 (0) Decremented the semaphore (fd) by 1
0078.872 (0) Semaphore (fd) unlocked
0078.873 (0) There were no errors in the uploads, so the 'resume' event (1) is being unscheduled
0078.875 (0) Fetching RSS news feed
0079.009 (0) Fetched RSS news feed; result is a: SimplePie
0079.056 (0) Sending email ('Files and database (Full backup)') report (attachments: 0, size: 0 KB) to: bhave...
0079.076 (0) The backup apparently succeeded and is now complete
