<svg xmlns="http://www.w3.org/2000/svg" viewBox="0 0 1081 837" width="1081" height="837"><defs><linearGradient id="grd1" gradientUnits="userSpaceOnUse" x1="463.15" y1="764.38" x2="463.15" y2="35.67"><stop offset="0" stop-color="#808080" stop-opacity="0.25"></stop><stop offset="0.54" stop-color="#808080" stop-opacity="0.12"></stop><stop offset="1" stop-color="#808080" stop-opacity="0.1"></stop></linearGradient><linearGradient id="grd2" gradientUnits="userSpaceOnUse" x1="222183.601" y1="552853.459" x2="222183.601" y2="117538.113"><stop offset="0" stop-color="#808080" stop-opacity="0.25"></stop><stop offset="0.54" stop-color="#808080" stop-opacity="0.12"></stop><stop offset="1" stop-color="#808080" stop-opacity="0.1"></stop></linearGradient></defs><style>
		tspan { white-space:pre }
		.shp0 { opacity: 0.102;fill: #00d0cb } 
		.shp1 { fill: #00d0cb } 
		.shp2 { fill: url(#grd1) } 
		.shp3 { fill: #535461 } 
		.shp4 { fill: #f6f7f9 } 
		.shp5 { fill: #dce0ed } 
		.shp6 { fill: url(#grd2) } 
		.shp7 { fill: #65617d } 
		.shp8 { fill: #a27772 } 
		.shp9 { opacity: 0.102;fill: #000000 } 
		.shp10 { fill: #fbbebe } 
		.shp11 { fill: #ff6584 } 
		.shp12 { opacity: 0.051;fill: #000000 } 
		.shp13 { fill: #7c5c5c } 
		.shp14 { fill: #000000 } 
		.shp15 { fill: #ffd037 } 
		.shp16 { fill: #a8a8a8 } 
		.shp17 { opacity: 0.2;fill: #000000 } 
	</style><path id="Layer" class="shp0" d="M234.42 0.63C199.66 -0.65 163.35 -1.55 131.92 13.35C100.49 28.25 76.19 64.35 86.73 97.54C90.17 108.36 96.87 117.79 102.52 127.64C130.77 176.9 132.08 240.57 105.89 290.96C85.73 329.75 51.56 359.27 26.96 395.41C2.36 431.55 -11.62 481.64 12.58 518.05C29.15 542.98 59.9 555.11 89.69 558.05C119.48 560.99 149.44 556.36 179.36 555.17C193.86 554.61 208.38 554.87 222.84 555.95C237.31 557.03 251.71 558.92 265.96 561.61C280.22 564.31 294.31 567.81 308.17 572.09C322.04 576.37 335.65 581.43 348.94 587.24C422.43 619.46 485.74 674.58 563.12 695.85C572.41 698.4 582.12 700.46 591.62 698.73C608.47 695.66 620.72 681.73 633.91 670.73C676.02 635.86 734.32 629.35 788.98 627.73C843.64 626.11 900.57 627.36 949.98 603.89C993.12 583.4 1026.33 545.28 1046.98 502.22C1067.63 459.16 1076.6 411.31 1079.98 363.66C1081.98 335.3 1081.91 306.02 1071.76 279.47C1060.35 249.62 1037.21 225.85 1012.94 205.07C987.58 183.35 959.94 163.67 928.63 151.95C891.23 137.95 850.63 135.95 810.81 132.63C790.41 130.93 770.03 128.83 749.71 126.36C729.38 123.88 709.11 121.02 688.89 117.77C668.67 114.52 648.52 110.89 628.44 106.88C608.36 102.87 588.36 98.48 568.45 93.71C492.82 75.63 409.78 55.88 340.9 19.05C306.33 0.56 273.39 2.03 234.42 0.63Z"></path><g id="Layer" style="opacity: 0.102"><path id="Layer" class="shp1" d="M713.88 629.67C713.88 629.67 717.42 580.06 745.34 553.01C748.26 550.22 750.96 547.19 753.39 543.96C755.83 540.74 758 537.32 759.89 533.74C761.78 530.17 763.38 526.44 764.67 522.61C765.96 518.78 766.94 514.85 767.6 510.86C767.9 508.95 768.16 507.03 768.37 505.11C768.58 503.19 768.75 501.26 768.88 499.33C769 497.4 769.08 495.47 769.12 493.53C769.16 491.6 769.15 489.66 769.1 487.73"></path><path id="Layer" class="shp1" d="M786.59 470.58C784.54 476.06 768.69 488.24 768.69 488.24C768.69 488.24 764.69 468.65 766.76 463.17C767.75 460.54 769.73 458.41 772.29 457.25C774.84 456.08 777.75 455.98 780.38 456.96C783.01 457.95 785.14 459.93 786.3 462.49C787.47 465.04 787.57 467.95 786.59 470.58L786.59 470.58Z"></path><path id="Layer" class="shp1" d="M791.65 507.05C786.95 510.53 767.03 512.14 767.03 512.14C767.03 512.14 774.33 493.53 779.03 490.04C781.29 488.46 784.08 487.82 786.8 488.26C789.52 488.7 791.97 490.18 793.61 492.4C795.26 494.61 795.97 497.38 795.61 500.12C795.24 502.85 793.82 505.34 791.65 507.04L791.65 507.05Z"></path><path id="Layer" class="shp1" d="M771.56 558.62C765.74 559.26 747.73 550.62 747.73 550.62C747.73 550.62 763.43 538.24 769.24 537.62C771.94 537.47 774.6 538.36 776.66 540.11C778.72 541.86 780.04 544.33 780.34 547.02C780.63 549.71 779.89 552.41 778.26 554.57C776.62 556.73 774.23 558.18 771.56 558.62Z"></path><path id="Layer" class="shp1" d="M747.57 594.22C741.95 595.83 722.73 590.33 722.73 590.33C722.73 590.33 736.11 575.48 741.73 573.87C744.46 573 747.42 573.28 749.94 574.63C752.46 575.98 754.33 578.29 755.12 581.04C755.91 583.79 755.55 586.74 754.13 589.23C752.71 591.71 750.34 593.51 747.57 594.22L747.57 594.22Z"></path><path id="Layer" class="shp1" d="M745.81 505.42C748.31 510.7 765.13 521.49 765.13 521.49C765.13 521.49 767.45 501.64 764.94 496.35C763.69 493.89 761.53 492.02 758.92 491.14C756.31 490.25 753.46 490.41 750.97 491.59C748.48 492.77 746.55 494.88 745.58 497.46C744.62 500.04 744.7 502.9 745.81 505.42L745.81 505.42Z"></path><path id="Layer" class="shp1" d="M718.28 547.41C722.28 551.7 741.53 556.97 741.53 556.97C741.53 556.97 737.8 537.33 733.83 533.03C731.92 530.98 729.28 529.77 726.48 529.66C723.68 529.56 720.95 530.57 718.89 532.47C716.83 534.37 715.61 537.02 715.5 539.82C715.38 542.61 716.38 545.35 718.28 547.41L718.28 547.41Z"></path><path id="Layer" class="shp1" d="M697.13 591.89C700.31 596.79 718.43 605.24 718.43 605.24C718.43 605.24 718.07 585.24 714.88 580.35C713.31 578.08 710.92 576.51 708.22 575.98C705.51 575.45 702.71 575.99 700.4 577.49C698.08 579 696.45 581.34 695.84 584.03C695.23 586.72 695.69 589.54 697.13 591.89Z"></path><path id="Layer" class="shp1" d="M786.59 470.58C784.54 476.06 768.69 488.24 768.69 488.24C768.69 488.24 764.69 468.65 766.76 463.17C767.75 460.54 769.73 458.41 772.29 457.25C774.84 456.08 777.75 455.98 780.38 456.96C783.01 457.95 785.14 459.93 786.3 462.49C787.47 465.04 787.57 467.95 786.59 470.58L786.59 470.58Z"></path><path id="Layer" class="shp1" d="M791.65 507.05C786.95 510.53 767.03 512.14 767.03 512.14C767.03 512.14 774.33 493.53 779.03 490.04C781.29 488.46 784.08 487.82 786.8 488.26C789.52 488.7 791.97 490.18 793.61 492.4C795.26 494.61 795.97 497.38 795.61 500.12C795.24 502.85 793.82 505.34 791.65 507.04L791.65 507.05Z"></path><path id="Layer" class="shp1" d="M771.56 558.62C765.74 559.26 747.73 550.62 747.73 550.62C747.73 550.62 763.43 538.24 769.24 537.62C771.94 537.47 774.6 538.36 776.66 540.11C778.72 541.86 780.04 544.33 780.34 547.02C780.63 549.71 779.89 552.41 778.26 554.57C776.62 556.73 774.23 558.18 771.56 558.62Z"></path><path id="Layer" class="shp1" d="M747.57 594.22C741.95 595.83 722.73 590.33 722.73 590.33C722.73 590.33 736.11 575.48 741.73 573.87C744.46 573 747.42 573.28 749.94 574.63C752.46 575.98 754.33 578.29 755.12 581.04C755.91 583.79 755.55 586.74 754.13 589.23C752.71 591.71 750.34 593.51 747.57 594.22L747.57 594.22Z"></path><path id="Layer" class="shp1" d="M745.81 505.42C748.31 510.7 765.13 521.49 765.13 521.49C765.13 521.49 767.45 501.64 764.94 496.35C763.69 493.89 761.53 492.02 758.92 491.14C756.31 490.25 753.46 490.41 750.97 491.59C748.48 492.77 746.55 494.88 745.58 497.46C744.62 500.04 744.7 502.9 745.81 505.42L745.81 505.42Z"></path><path id="Layer" class="shp1" d="M718.28 547.41C722.28 551.7 741.53 556.97 741.53 556.97C741.53 556.97 737.8 537.33 733.83 533.03C731.92 530.98 729.28 529.77 726.48 529.66C723.68 529.56 720.95 530.57 718.89 532.47C716.83 534.37 715.61 537.02 715.5 539.82C715.38 542.61 716.38 545.35 718.28 547.41L718.28 547.41Z"></path><path id="Layer" class="shp1" d="M697.13 591.89C700.31 596.79 718.43 605.24 718.43 605.24C718.43 605.24 718.07 585.24 714.88 580.35C713.31 578.08 710.92 576.51 708.22 575.98C705.51 575.45 702.71 575.99 700.4 577.49C698.08 579 696.45 581.34 695.84 584.03C695.23 586.72 695.69 589.54 697.13 591.89Z"></path></g><g id="Layer" style="opacity: 0.102"><path id="Layer" class="shp1" d="M723.68 441.89C723.68 441.89 727.22 392.28 755.14 365.23C758.06 362.43 760.75 359.41 763.19 356.18C765.63 352.95 767.8 349.54 769.69 345.96C771.58 342.38 773.17 338.66 774.47 334.83C775.76 331 776.74 327.07 777.4 323.08C777.7 321.17 777.96 319.25 778.18 317.33C778.39 315.41 778.56 313.48 778.68 311.55C778.81 309.62 778.89 307.69 778.93 305.75C778.96 303.82 778.95 301.88 778.9 299.95"></path><path id="Layer" class="shp1" d="M796.39 282.8C794.39 288.27 778.5 300.45 778.5 300.45C778.5 300.45 774.5 280.86 776.56 275.39C777.55 272.76 779.53 270.63 782.09 269.47C784.64 268.3 787.55 268.2 790.18 269.18C792.81 270.17 794.94 272.15 796.1 274.71C797.27 277.26 797.37 280.17 796.39 282.8L796.39 282.8Z"></path><path id="Layer" class="shp1" d="M801.48 319.26C796.79 322.75 776.86 324.35 776.86 324.35C776.86 324.35 784.16 305.75 788.86 302.26C791.11 300.49 793.97 299.71 796.81 300.09C799.64 300.47 802.2 301.98 803.9 304.28C805.61 306.57 806.31 309.46 805.85 312.28C805.4 315.1 803.82 317.62 801.48 319.26Z"></path><path id="Layer" class="shp1" d="M781.36 370.84C775.55 371.48 757.54 362.84 757.54 362.84C757.54 362.84 773.24 350.47 779.05 349.84C781.87 349.48 784.72 350.26 786.95 352.02C789.18 353.78 790.62 356.36 790.93 359.19C791.24 362.01 790.4 364.85 788.6 367.05C786.8 369.25 784.19 370.63 781.36 370.89L781.36 370.84Z"></path><path id="Layer" class="shp1" d="M757.37 406.44C751.75 408.05 732.53 402.55 732.53 402.55C732.53 402.55 745.92 387.7 751.53 386.08C754.22 385.35 757.08 385.7 759.51 387.07C761.94 388.44 763.73 390.7 764.5 393.38C765.26 396.06 764.94 398.93 763.61 401.38C762.27 403.82 760.03 405.64 757.36 406.44L757.37 406.44Z"></path><path id="Layer" class="shp1" d="M755.61 317.63C758.11 322.92 774.94 333.71 774.94 333.71C774.94 333.71 777.25 313.85 774.75 308.57C773.58 305.98 771.42 303.96 768.75 302.98C766.08 301.99 763.13 302.13 760.56 303.34C757.99 304.56 756.02 306.76 755.09 309.45C754.15 312.13 754.34 315.08 755.61 317.63Z"></path><path id="Layer" class="shp1" d="M728.08 359.62C732.08 363.92 751.34 369.18 751.34 369.18C751.34 369.18 747.6 349.54 743.63 345.25C741.7 343.27 739.08 342.12 736.32 342.05C733.56 341.97 730.88 342.98 728.85 344.86C726.82 346.73 725.61 349.32 725.46 352.08C725.32 354.84 726.26 357.54 728.08 359.62Z"></path><path id="Layer" class="shp1" d="M706.93 404.11C710.12 409.01 728.23 417.46 728.23 417.46C728.23 417.46 727.87 397.46 724.68 392.57C723.19 390.13 720.77 388.39 717.98 387.76C715.19 387.13 712.27 387.65 709.87 389.21C707.47 390.77 705.81 393.23 705.25 396.04C704.7 398.85 705.3 401.76 706.93 404.11Z"></path><path id="Layer" class="shp1" d="M796.39 282.8C794.39 288.27 778.5 300.45 778.5 300.45C778.5 300.45 774.5 280.86 776.56 275.39C777.55 272.76 779.53 270.63 782.09 269.47C784.64 268.3 787.55 268.2 790.18 269.18C792.81 270.17 794.94 272.15 796.1 274.71C797.27 277.26 797.37 280.17 796.39 282.8L796.39 282.8Z"></path><path id="Layer" class="shp1" d="M801.48 319.26C796.79 322.75 776.86 324.35 776.86 324.35C776.86 324.35 784.16 305.75 788.86 302.26C791.11 300.49 793.97 299.71 796.81 300.09C799.64 300.47 802.2 301.98 803.9 304.28C805.61 306.57 806.31 309.46 805.85 312.28C805.4 315.1 803.82 317.62 801.48 319.26Z"></path><path id="Layer" class="shp1" d="M781.36 370.84C775.55 371.48 757.54 362.84 757.54 362.84C757.54 362.84 773.24 350.47 779.05 349.84C781.87 349.48 784.72 350.26 786.95 352.02C789.18 353.78 790.62 356.36 790.93 359.19C791.24 362.01 790.4 364.85 788.6 367.05C786.8 369.25 784.19 370.63 781.36 370.89L781.36 370.84Z"></path><path id="Layer" class="shp1" d="M757.37 406.44C751.75 408.05 732.53 402.55 732.53 402.55C732.53 402.55 745.92 387.7 751.53 386.08C754.22 385.35 757.08 385.7 759.51 387.07C761.94 388.44 763.73 390.7 764.5 393.38C765.26 396.06 764.94 398.93 763.61 401.38C762.27 403.82 760.03 405.64 757.36 406.44L757.37 406.44Z"></path><path id="Layer" class="shp1" d="M755.61 317.63C758.11 322.92 774.94 333.71 774.94 333.71C774.94 333.71 777.25 313.85 774.75 308.57C773.58 305.98 771.42 303.96 768.75 302.98C766.08 301.99 763.13 302.13 760.56 303.34C757.99 304.56 756.02 306.76 755.09 309.45C754.15 312.13 754.34 315.08 755.61 317.63Z"></path><path id="Layer" class="shp1" d="M728.08 359.62C732.08 363.92 751.34 369.18 751.34 369.18C751.34 369.18 747.6 349.54 743.63 345.25C741.7 343.27 739.08 342.12 736.32 342.05C733.56 341.97 730.88 342.98 728.85 344.86C726.82 346.73 725.61 349.32 725.46 352.08C725.32 354.84 726.26 357.54 728.08 359.62Z"></path><path id="Layer" class="shp1" d="M706.93 404.11C710.12 409.01 728.23 417.46 728.23 417.46C728.23 417.46 727.87 397.46 724.68 392.57C723.19 390.13 720.77 388.39 717.98 387.76C715.19 387.13 712.27 387.65 709.87 389.21C707.47 390.77 705.81 393.23 705.25 396.04C704.7 398.85 705.3 401.76 706.93 404.11Z"></path></g><g id="Layer" style="opacity: 0.102"><path id="Layer" class="shp1" d="M193.19 506.89C193.19 506.89 150.48 481.43 138.85 444.35C137.67 440.48 136.18 436.72 134.39 433.09C132.61 429.46 130.53 425.98 128.19 422.69C125.84 419.39 123.23 416.29 120.39 413.42C117.55 410.54 114.48 407.9 111.21 405.52C109.64 404.39 108.04 403.3 106.42 402.24C104.8 401.19 103.15 400.17 101.48 399.19C99.81 398.21 98.12 397.27 96.41 396.37C94.7 395.46 92.96 394.6 91.21 393.78"></path><path id="Layer" class="shp1" d="M83.76 370.42C87.76 374.71 91.49 394.35 91.49 394.35C91.49 394.35 72.2 389.1 68.23 384.81C66.41 382.74 65.47 380.03 65.62 377.28C65.76 374.53 66.97 371.94 69 370.06C71.02 368.19 73.69 367.17 76.45 367.24C79.21 367.31 81.83 368.45 83.76 370.42Z"></path><path id="Layer" class="shp1" d="M118.61 382.35C119.61 388.11 112.09 406.63 112.09 406.63C112.09 406.63 98.75 391.74 97.75 385.98C97.19 383.18 97.79 380.28 99.4 377.92C101.01 375.57 103.51 373.96 106.32 373.47C109.13 372.98 112.02 373.65 114.34 375.32C116.65 376.99 118.19 379.53 118.61 382.35L118.61 382.35Z"></path><path id="Layer" class="shp1" d="M155.65 423.43C153.65 428.91 137.76 441.1 137.76 441.1C137.76 441.1 133.76 421.51 135.81 416.04C136.73 413.33 138.71 411.11 141.3 409.89C143.88 408.66 146.85 408.53 149.53 409.53C152.21 410.53 154.37 412.57 155.53 415.19C156.68 417.81 156.72 420.78 155.65 423.43L155.65 423.43Z"></path><path id="Layer" class="shp1" d="M176.66 460.86C175.58 466.61 162.02 481.35 162.02 481.35C162.02 481.35 154.77 462.72 155.86 456.98C156.38 454.22 157.98 451.79 160.3 450.2C162.62 448.62 165.47 448.03 168.22 448.55C170.98 449.07 173.42 450.66 175 452.98C176.58 455.3 177.18 458.15 176.66 460.91L176.66 460.86Z"></path><path id="Layer" class="shp1" d="M96.55 422.51C102.39 422.65 119.6 412.51 119.6 412.51C119.6 412.51 102.9 401.51 97.05 401.37C94.28 401.36 91.61 402.44 89.62 404.37C87.64 406.3 86.49 408.94 86.42 411.71C86.36 414.48 87.38 417.17 89.27 419.19C91.17 421.22 93.78 422.42 96.55 422.54L96.55 422.51Z"></path><path id="Layer" class="shp1" d="M121.68 465.98C127.3 464.36 140.68 449.5 140.68 449.5C140.68 449.5 121.46 444.01 115.84 445.63C113.2 446.46 110.99 448.28 109.68 450.72C108.37 453.15 108.06 456 108.83 458.66C109.59 461.32 111.36 463.57 113.77 464.94C116.17 466.31 119.01 466.68 121.69 465.98L121.68 465.98Z"></path><path id="Layer" class="shp1" d="M151.9 504.87C157.72 504.23 173.41 491.87 173.41 491.87C173.41 491.87 155.41 483.21 149.58 483.87C146.68 484.03 143.97 485.38 142.09 487.59C140.21 489.81 139.32 492.71 139.64 495.6C139.96 498.49 141.46 501.12 143.78 502.87C146.09 504.63 149.03 505.35 151.9 504.87L151.9 504.87Z"></path><path id="Layer" class="shp1" d="M83.76 370.42C87.76 374.71 91.49 394.35 91.49 394.35C91.49 394.35 72.2 389.1 68.23 384.81C66.41 382.74 65.47 380.03 65.62 377.28C65.76 374.53 66.97 371.94 69 370.06C71.02 368.19 73.69 367.17 76.45 367.24C79.21 367.31 81.83 368.45 83.76 370.42Z"></path><path id="Layer" class="shp1" d="M118.61 382.35C119.61 388.11 112.09 406.63 112.09 406.63C112.09 406.63 98.75 391.74 97.75 385.98C97.19 383.18 97.79 380.28 99.4 377.92C101.01 375.57 103.51 373.96 106.32 373.47C109.13 372.98 112.02 373.65 114.34 375.32C116.65 376.99 118.19 379.53 118.61 382.35L118.61 382.35Z"></path><path id="Layer" class="shp1" d="M155.65 423.43C153.65 428.91 137.76 441.1 137.76 441.1C137.76 441.1 133.76 421.51 135.81 416.04C136.73 413.33 138.71 411.11 141.3 409.89C143.88 408.66 146.85 408.53 149.53 409.53C152.21 410.53 154.37 412.57 155.53 415.19C156.68 417.81 156.72 420.78 155.65 423.43L155.65 423.43Z"></path><path id="Layer" class="shp1" d="M176.66 460.86C175.58 466.61 162.02 481.35 162.02 481.35C162.02 481.35 154.77 462.72 155.86 456.98C156.38 454.22 157.98 451.79 160.3 450.2C162.62 448.62 165.47 448.03 168.22 448.55C170.98 449.07 173.42 450.66 175 452.98C176.58 455.3 177.18 458.15 176.66 460.91L176.66 460.86Z"></path><path id="Layer" class="shp1" d="M96.55 422.51C102.39 422.65 119.6 412.51 119.6 412.51C119.6 412.51 102.9 401.51 97.05 401.37C94.28 401.36 91.61 402.44 89.62 404.37C87.64 406.3 86.49 408.94 86.42 411.71C86.36 414.48 87.38 417.17 89.27 419.19C91.17 421.22 93.78 422.42 96.55 422.54L96.55 422.51Z"></path><path id="Layer" class="shp1" d="M121.68 465.98C127.3 464.36 140.68 449.5 140.68 449.5C140.68 449.5 121.46 444.01 115.84 445.63C113.2 446.46 110.99 448.28 109.68 450.72C108.37 453.15 108.06 456 108.83 458.66C109.59 461.32 111.36 463.57 113.77 464.94C116.17 466.31 119.01 466.68 121.69 465.98L121.68 465.98Z"></path><path id="Layer" class="shp1" d="M151.9 504.87C157.72 504.23 173.41 491.87 173.41 491.87C173.41 491.87 155.41 483.21 149.58 483.87C146.68 484.03 143.97 485.38 142.09 487.59C140.21 489.81 139.32 492.71 139.64 495.6C139.96 498.49 141.46 501.12 143.78 502.87C146.09 504.63 149.03 505.35 151.9 504.87L151.9 504.87Z"></path></g><path id="Layer" class="shp0" d="M716.73 806.35C745.44 818.84 780.47 811.24 813.05 812.12C817.5 812.24 822.23 812.61 825.8 814.77C829.37 816.93 831.14 820.42 833.59 823.42C842.72 834.56 861.43 838.14 877.78 836.25C894.13 834.36 909.12 828.1 924.55 823.34C951.22 815.1 981.7 811.34 1008.01 820.34C1010.42 821.16 1013.01 822.11 1015.55 821.78C1021.32 821.05 1023.04 815.07 1027.07 811.66C1034.35 805.49 1050.17 807.17 1053.37 799.04C1055.24 794.28 1050.93 789.4 1046.23 786.15C1028.23 773.71 1002.53 771.66 979 773.58C955.47 775.5 932.34 780.79 908.69 780.81C879.22 780.81 850.75 772.69 821.57 769.36C801.36 767.06 779.3 767.36 760.35 774.13C739.81 781.45 735.29 797.94 716.73 806.35Z"></path><path id="Layer" class="shp0" d="M173.41 768.04C222.41 782.15 282.21 773.56 337.81 774.56C345.42 774.7 353.48 775.11 359.59 777.56C365.7 780.01 368.7 783.96 372.89 787.34C388.47 799.93 420.4 803.98 448.3 801.84C476.2 799.7 501.8 792.63 528.14 787.25C573.66 777.94 625.7 773.7 670.6 783.85C674.72 784.78 679.06 785.85 683.48 785.48C693.32 784.65 696.25 777.9 703.14 774.04C715.57 767.04 742.56 768.97 748.02 759.79C751.22 754.41 743.86 748.89 735.84 745.22C705.16 731.17 661.26 728.85 621.09 731.02C580.92 733.19 541.44 739.16 501.09 739.19C450.79 739.19 402.19 730.02 352.38 726.25C317.88 723.65 280.23 723.97 247.88 731.65C212.81 739.94 205.08 758.57 173.41 768.04Z"></path><path id="Layer" class="shp0" d="M42.25 802.62C56.25 811.04 73.25 805.92 89.11 806.51C91.28 806.59 93.58 806.84 95.32 808.29C97.06 809.74 97.92 812.11 99.11 814.13C103.55 821.64 112.65 824.06 120.6 822.78C128.55 821.5 135.85 817.29 143.36 814.07C156.36 808.52 171.17 805.99 183.96 812.07C184.23 812.24 184.52 812.4 184.81 812.53C185.11 812.66 185.41 812.77 185.72 812.85C186.04 812.94 186.35 813 186.67 813.03C186.99 813.07 187.32 813.08 187.64 813.07C190.44 812.57 191.28 808.54 193.24 806.24C196.78 802.08 204.48 803.24 206.03 797.73C206.94 794.52 204.84 791.23 202.56 789.04C193.82 780.65 181.3 779.27 169.85 780.56C158.4 781.85 147.15 785.35 135.64 785.35C121.31 785.35 107.46 779.88 93.26 777.63C83.42 776.07 72.69 776.27 63.47 780.85C53.48 785.85 51.28 796.97 42.25 802.62Z"></path><path id="Layer" class="shp2" d="M695.48 35.67L230.86 35.67C225.27 35.66 219.74 36.75 214.57 38.88C209.4 41.01 204.71 44.14 200.75 48.09C196.79 52.03 193.65 56.72 191.5 61.88C189.36 67.04 188.25 72.57 188.24 78.16L188.24 721.89C188.25 727.48 189.36 733.01 191.51 738.16C193.66 743.32 196.8 748 200.76 751.94C204.72 755.89 209.41 759.01 214.58 761.14C219.74 763.27 225.27 764.36 230.86 764.35L695.48 764.35C701.07 764.36 706.6 763.27 711.77 761.14C716.94 759.01 721.63 755.88 725.59 751.93C729.55 747.99 732.69 743.3 734.84 738.14C736.98 732.98 738.09 727.45 738.1 721.86L738.1 78.16C738.09 72.57 736.98 67.04 734.84 61.88C732.69 56.72 729.55 52.03 725.59 48.09C721.63 44.14 716.94 41.01 711.77 38.88C706.6 36.75 701.07 35.66 695.48 35.67L695.48 35.67Z"></path><path id="Layer" class="shp3" d="M214.79 44.4L711.51 44.4C722.57 44.4 731.51 53.34 731.51 64.4L731.51 737.84C731.51 748.9 722.57 757.84 711.51 757.84L214.79 757.84C203.73 757.84 194.79 748.9 194.79 737.84L194.79 64.4C194.79 53.34 203.73 44.4 214.79 44.4Z"></path><path id="Layer" class="shp4" d="M222.06 111.88L704.24 111.88L704.24 690.35L222.06 690.35L222.06 111.88Z"></path><path id="Layer" class="shp4" d="M460.97 83.67C457.35 83.67 454.42 80.74 454.42 77.12C454.42 73.5 457.35 70.57 460.97 70.57C464.59 70.57 467.52 73.5 467.52 77.12C467.52 80.74 464.59 83.67 460.97 83.67Z"></path><path id="Layer" class="shp4" d="M460.97 742.57C450.11 742.57 441.33 733.79 441.33 722.93C441.33 712.07 450.11 703.29 460.97 703.29C471.83 703.29 480.61 712.07 480.61 722.93C480.61 733.79 471.83 742.57 460.97 742.57Z"></path><g id="Layer" style="opacity: 0.2"><path id="Layer" class="shp1" d="M222.06 111.88L704.24 111.88L704.24 140.71L222.06 140.71L222.06 111.88Z"></path></g><path id="Layer" class="shp4" d="M237.14 132.45C233.74 132.45 230.99 129.7 230.99 126.3C230.99 122.9 233.74 120.15 237.14 120.15C240.54 120.15 243.29 122.9 243.29 126.3C243.29 129.7 240.54 132.45 237.14 132.45Z"></path><path id="Layer" class="shp4" d="M252.81 132.45C249.41 132.45 246.66 129.7 246.66 126.3C246.66 122.9 249.41 120.15 252.81 120.15C256.21 120.15 258.96 122.9 258.96 126.3C258.96 129.7 256.21 132.45 252.81 132.45Z"></path><path id="Layer" class="shp4" d="M268.47 132.45C265.07 132.45 262.32 129.7 262.32 126.3C262.32 122.9 265.07 120.15 268.47 120.15C271.87 120.15 274.62 122.9 274.62 126.3C274.62 129.7 271.87 132.45 268.47 132.45Z"></path><path id="Layer" class="shp5" d="M236.46 281.93L685.47 281.93L685.47 283.43L236.46 283.43L236.46 281.93Z"></path><path id="Layer" class="shp5" d="M236.46 316.76L685.47 316.76L685.47 318.26L236.46 318.26L236.46 316.76Z"></path><path id="Layer" class="shp5" d="M236.46 351.6L685.47 351.6L685.47 353.1L236.46 353.1L236.46 351.6Z"></path><path id="Layer" class="shp5" d="M236.46 386.43L685.47 386.43L685.47 387.93L236.46 387.93L236.46 386.43Z"></path><path id="Layer" class="shp5" d="M236.46 421.26L685.47 421.26L685.47 422.76L236.46 422.76L236.46 421.26Z"></path><g id="Layer" style="opacity: 0.2"><path id="Layer" class="shp1" d="M685.47 422.76L235.91 422.76L235.91 354.26L277.14 374.58L319.81 380.37L357.25 369.08L402.42 334.05L425.14 320.93L441.75 317.73L457.64 318.58L483.77 331.49L519.3 354.12L547.18 357.7L569.28 350.08L616.14 311.71L640.06 303.18L665.09 307.05L685.47 318.82L685.47 422.76L685.47 422.76Z"></path></g><path id="Layer" class="shp1" d="M314.27 380.35C273.78 380.35 236.37 355.59 235.9 355.27L237.02 353.61C237.6 354 295.18 392.09 344.11 373.01C361.95 366.01 374.65 355.23 386.94 344.76C399.77 333.83 411.88 323.51 428.4 319.03C447.34 313.9 468.04 318.54 483.77 331.47C497.22 342.52 524 360.26 552.29 354.96C566.71 352.25 578.86 341.72 591.73 330.57C616.4 309.19 641.92 287.08 686.06 318.8L684.89 320.42C642.03 289.62 617.13 311.21 593.04 332.08C579.96 343.41 567.61 354.08 552.66 356.92C523.56 362.38 496.22 344.28 482.5 333.01C467.27 320.5 447.25 316.01 428.92 320.96C412.84 325.32 400.92 335.5 388.23 346.28C375.82 356.86 362.99 367.79 344.84 374.87C342.41 375.8 339.93 376.61 337.42 377.31C334.91 378 332.37 378.58 329.81 379.04C327.25 379.5 324.67 379.84 322.07 380.06C319.48 380.28 316.87 380.37 314.27 380.35L314.27 380.35Z"></path><path id="Layer" class="shp1" d="M452.52 328.76C446.37 328.76 441.39 323.78 441.39 317.63C441.39 311.48 446.37 306.5 452.52 306.5C458.67 306.5 463.65 311.48 463.65 317.63C463.65 323.78 458.67 328.76 452.52 328.76Z"></path><g id="Layer" style="opacity: 0.2"><path id="Layer" class="shp1" d="M597.7 170.35L457.3 170.35C457 170.35 456.7 170.41 456.43 170.52C456.15 170.64 455.9 170.81 455.69 171.02C455.48 171.23 455.31 171.48 455.19 171.76C455.08 172.03 455.02 172.33 455.02 172.63L455.02 267.58C455.02 268.04 455.16 268.48 455.42 268.86C455.67 269.24 456.04 269.53 456.46 269.7C456.89 269.87 457.35 269.9 457.8 269.8C458.24 269.7 458.65 269.47 458.96 269.14L483.29 243.19C483.4 243.08 483.51 242.97 483.64 242.88C483.77 242.8 483.9 242.72 484.05 242.66C484.19 242.6 484.34 242.55 484.49 242.52C484.64 242.49 484.79 242.47 484.95 242.47L597.7 242.47C598 242.47 598.3 242.41 598.57 242.3C598.85 242.18 599.1 242.01 599.31 241.8C599.52 241.59 599.69 241.34 599.81 241.06C599.92 240.79 599.98 240.49 599.98 240.19L599.98 172.61C599.98 172.31 599.92 172.02 599.8 171.74C599.68 171.47 599.52 171.22 599.31 171.01C599.09 170.8 598.84 170.63 598.57 170.52C598.29 170.41 598 170.35 597.7 170.35Z"></path></g><path id="Layer" class="shp4" d="M487.52 187.93L567.47 187.93L567.47 197.93L487.52 197.93L487.52 187.93Z"></path><path id="Layer" class="shp4" d="M487.52 210.09L509.47 210.09L509.47 220.09L487.52 220.09L487.52 210.09Z"></path><g id="Layer" style="opacity: 0.2"><path id="Layer" class="shp1" d="M274.38 494.32L296.33 494.32L296.33 504.32L274.38 504.32L274.38 494.32Z"></path></g><g id="Layer" style="opacity: 0.2"><path id="Layer" class="shp1" d="M274.38 513.65L296.33 513.65L296.33 523.65L274.38 523.65L274.38 513.65Z"></path></g><g id="Layer" style="opacity: 0.2"><path id="Layer" class="shp1" d="M274.38 532.98L296.33 532.98L296.33 542.98L274.38 542.98L274.38 532.98Z"></path></g><g id="Layer" style="opacity: 0.2"><path id="Layer" class="shp1" d="M274.38 552.32L296.33 552.32L296.33 562.32L274.38 562.32L274.38 552.32Z"></path></g><g id="Layer" style="opacity: 0.2"><path id="Layer" class="shp1" d="M274.38 571.65L296.33 571.65L296.33 581.65L274.38 581.65L274.38 571.65Z"></path></g><g id="Layer" style="opacity: 0.2"><path id="Layer" class="shp1" d="M274.38 590.98L296.33 590.98L296.33 600.98L274.38 600.98L274.38 590.98Z"></path></g><g id="Layer" style="opacity: 0.2"><path id="Layer" class="shp1" d="M274.38 610.32L296.33 610.32L296.33 620.32L274.38 620.32L274.38 610.32Z"></path></g><g id="Layer" style="opacity: 0.2"><path id="Layer" class="shp1" d="M274.38 629.65L296.33 629.65L296.33 639.65L274.38 639.65L274.38 629.65Z"></path></g><g id="Layer" style="opacity: 0.2"><path id="Layer" class="shp1" d="M315.71 639.65L337.66 639.65L337.66 649.65L315.71 649.65L315.71 639.65Z"></path></g><g id="Layer" style="opacity: 0.2"><path id="Layer" class="shp1" d="M354.38 639.65L376.33 639.65L376.33 649.65L354.38 649.65L354.38 639.65Z"></path></g><g id="Layer" style="opacity: 0.2"><path id="Layer" class="shp1" d="M393.05 639.65L415 639.65L415 649.65L393.05 649.65L393.05 639.65Z"></path></g><g id="Layer" style="opacity: 0.2"><path id="Layer" class="shp1" d="M431.71 639.65L453.66 639.65L453.66 649.65L431.71 649.65L431.71 639.65Z"></path></g><g id="Layer" style="opacity: 0.2"><path id="Layer" class="shp1" d="M470.38 639.65L492.33 639.65L492.33 649.65L470.38 649.65L470.38 639.65Z"></path></g><g id="Layer" style="opacity: 0.2"><path id="Layer" class="shp1" d="M509.05 639.65L531 639.65L531 649.65L509.05 649.65L509.05 639.65Z"></path></g><g id="Layer" style="opacity: 0.2"><path id="Layer" class="shp1" d="M547.71 639.65L569.66 639.65L569.66 649.65L547.71 649.65L547.71 639.65Z"></path></g><g id="Layer" style="opacity: 0.2"><path id="Layer" class="shp1" d="M586.38 639.65L608.33 639.65L608.33 649.65L586.38 649.65L586.38 639.65Z"></path></g><g id="Layer" style="opacity: 0.2"><path id="Layer" class="shp1" d="M625.05 639.65L647 639.65L647 649.65L625.05 649.65L625.05 639.65Z"></path></g><path id="Layer" class="shp4" d="M534.14 210.09L567.47 210.09L567.47 220.09L534.14 220.09L534.14 210.09Z"></path><path id="Layer" class="shp1" d="M315.71 566.98L337.66 566.98L337.66 629.65L315.71 629.65L315.71 566.98Z"></path><path id="Layer" class="shp1" d="M354.38 537.98L376.33 537.98L376.33 629.65L354.38 629.65L354.38 537.98Z"></path><path id="Layer" class="shp1" d="M393.05 513.65L415 513.65L415 629.65L393.05 629.65L393.05 513.65Z"></path><path id="Layer" class="shp1" d="M431.71 526.26L453.66 526.26L453.66 629.64L431.71 629.64L431.71 526.26Z"></path><path id="Layer" class="shp1" d="M470.38 504.32L492.33 504.32L492.33 629.65L470.38 629.65L470.38 504.32Z"></path><g id="Layer" style="opacity: 0.2"><path id="Layer" class="shp1" d="M509.05 552.32L531 552.32L531 629.65L509.05 629.65L509.05 552.32Z"></path></g><g id="Layer" style="opacity: 0.2"><path id="Layer" class="shp1" d="M547.71 552.32L569.66 552.32L569.66 629.65L547.71 629.65L547.71 552.32Z"></path></g><g id="Layer" style="opacity: 0.2"><path id="Layer" class="shp1" d="M586.38 552.32L608.33 552.32L608.33 629.65L586.38 629.65L586.38 552.32Z"></path></g><g id="Layer" style="opacity: 0.2"><path id="Layer" class="shp1" d="M625.05 552.32L647 552.32L647 629.65L625.05 629.65L625.05 552.32Z"></path></g><path id="Layer" fill-rule="evenodd" class="shp6" d="M1006.48 317.15L1006.48 337.35C1006.48 337.35 1000.08 401.07 979.72 408.14C979.22 408.31 978.71 408.47 978.2 408.62C977.69 408.77 977.18 408.91 976.67 409.04C976.15 409.16 975.64 409.28 975.12 409.39C974.6 409.49 974.07 409.59 973.55 409.67C974.31 415.47 975.01 420.9 975.55 425.19C977.82 443.34 984.25 471.87 984.25 471.87L983.05 472.14L983.2 473.22C985.39 490.03 982.88 517.44 982.88 517.44C982.88 517.44 979.71 537.82 975.17 558.57C974.49 561.67 973.98 564.81 973.64 567.96C973.29 571.12 973.12 574.29 973.12 577.47C973.12 580.65 973.29 583.82 973.64 586.98C973.98 590.13 974.49 593.27 975.17 596.37C974.8 600 974.6 603.66 974.59 607.31C974.58 610.96 974.75 614.61 975.1 618.25C975.45 621.89 975.98 625.51 976.68 629.09C977.39 632.68 978.27 636.22 979.33 639.72C979.67 640.72 979.99 641.72 980.27 642.72C987.62 668.43 977.63 707.52 972.9 725.35C968.53 741.77 966.85 761.1 966.53 765.28C966.77 765.63 966.97 766.01 967.13 766.41C967.29 766.8 967.4 767.21 967.48 767.63C967.55 768.05 967.59 768.48 967.58 768.91C967.56 769.33 967.51 769.76 967.41 770.17C965.33 778.68 972.57 790.57 972.71 790.75C972.85 790.93 972.99 791.11 973.12 791.29C973.25 791.48 973.37 791.67 973.48 791.86C973.6 792.06 973.71 792.26 973.81 792.46C973.91 792.66 974 792.87 974.09 793.08C974.41 793.83 974.63 794.62 974.73 795.43C974.84 796.23 974.83 797.05 974.71 797.86C974.58 798.66 974.35 799.45 974.01 800.19C973.68 800.93 973.24 801.62 972.71 802.24C967.98 808.35 940.17 805.75 935.44 803.85C932.55 802.66 932.77 797.34 933.55 791.85C934.07 788.36 934.77 784.8 935.07 782.21C935.58 777.65 934.33 769.88 933.49 765.42L933.17 765.34L933.33 764.59C933.02 763.01 932.8 762.01 932.8 762.01C932.8 762.01 933.15 762.37 933.69 762.84L941.12 727.18C935.44 704.58 941.12 644.18 941.12 644.18C941.12 644.18 928.26 620.84 927.12 585.27C926 550.26 917.19 538.94 916.91 538.59C898.75 547.86 875.67 647.16 875.67 647.16C877.51 671.24 875.24 708.31 867.67 728.31C866.53 731.47 865.55 734.69 864.74 737.95C863.92 741.21 863.28 744.51 862.8 747.84C862.32 751.17 862.02 754.52 861.89 757.87C861.75 761.23 861.79 764.6 862 767.95C861.83 768.09 861.65 768.23 861.46 768.36C861.28 768.49 861.09 768.61 860.9 768.72C860.7 768.84 860.51 768.94 860.3 769.04C860.1 769.14 859.9 769.24 859.69 769.32C860.12 773.66 861.12 780.31 863.12 782.75C863.32 783.01 863.5 783.28 863.65 783.57C863.79 783.87 863.91 784.17 864 784.49C864.08 784.8 864.14 785.13 864.16 785.45C864.18 785.78 864.17 786.11 864.12 786.43C864 787.36 863.73 788.26 863.32 789.09C862.91 789.93 862.36 790.7 861.7 791.36C861.04 792.01 860.27 792.56 859.43 792.97C858.6 793.38 857.7 793.65 856.77 793.77C846.5 795.27 821.75 799.1 815.5 802.02C807.56 805.72 776.16 803.13 774.64 799.43C774.53 799.06 774.47 798.68 774.44 798.3C774.41 797.91 774.42 797.53 774.46 797.14C774.51 796.76 774.6 796.39 774.72 796.02C774.84 795.66 775 795.3 775.19 794.97C775.46 794.41 775.77 793.87 776.13 793.35C776.48 792.84 776.88 792.35 777.31 791.9C777.73 791.45 778.2 791.03 778.69 790.65C779.19 790.27 779.71 789.93 780.26 789.63C780.44 789.53 780.62 789.43 780.81 789.34C781 789.24 781.18 789.16 781.37 789.07C781.56 788.99 781.76 788.91 781.95 788.84C782.15 788.76 782.34 788.69 782.54 788.63C788.45 786.69 799.64 782.59 802.64 778.3C802.64 778.3 816.54 766.37 820.54 759.91C820.92 759.27 821.37 758.69 821.89 758.16C822.41 757.64 822.99 757.18 823.62 756.79C824.26 756.41 824.93 756.1 825.64 755.88C826.34 755.66 827.07 755.52 827.81 755.48L828.13 755.48C828.83 736.77 832.43 650.4 835.13 646.77C838.13 642.69 835.13 619.35 835.13 619.35L839.96 581.52C839.96 581.52 839.21 517.41 846.4 506.3C852.6 496.7 854.03 479.83 854.31 475.4C854.37 474.7 854.37 474.31 854.37 474.31C852.29 473.39 851.81 471.99 854.37 469.99C863.64 462.66 866.19 402.07 866.45 395.07L866.45 394.42C865.81 394.55 859.52 396.05 843.45 392.55C826.43 388.84 824.53 351.42 832.86 335.12C838.06 324.93 838.68 317.05 838.41 312.58C838.32 311.32 838.29 310.06 838.3 308.79C838.31 307.53 838.36 306.27 838.47 305.01C838.58 303.75 838.73 302.49 838.93 301.25C839.13 300 839.38 298.76 839.67 297.53C846.99 267.87 867.28 270.28 867.28 270.28L900.94 256.74C904.82 253.33 906.11 248.7 906.11 244.16C906.11 243.79 906.11 243.41 906.11 243.04C902.3 241.85 898.69 240.07 895.43 237.75C892.18 235.44 889.31 232.63 886.93 229.42C884.55 226.21 882.69 222.64 881.43 218.85C880.16 215.06 879.51 211.1 879.48 207.1C879.48 205.05 879.64 202.99 879.98 200.97C880.31 198.94 880.81 196.95 881.48 195C882.15 193.06 882.97 191.17 883.95 189.37C884.93 187.56 886.06 185.84 887.32 184.22L887.48 184.01C887.43 183.87 887.34 183.72 887.34 183.57C887.02 182.37 887.11 181.09 886.75 179.91C885.87 177 882.69 175.48 880.56 173.27C880.03 172.7 879.56 172.07 879.15 171.41C878.75 170.75 878.4 170.05 878.13 169.32C877.85 168.59 877.65 167.83 877.52 167.07C877.39 166.3 877.33 165.52 877.35 164.74C877.35 164.58 877.35 164.41 877.35 164.25C877.36 163.52 877.41 162.79 877.51 162.07C877.61 161.35 877.75 160.63 877.94 159.93C878.13 159.22 878.36 158.53 878.64 157.86C878.91 157.18 879.23 156.52 879.59 155.89C882.02 151.6 886.75 147.97 891.69 148.81C894.75 149.33 897.52 151.48 900.5 151.66C903.48 151.84 906.21 150.2 908.93 148.99C910.56 148.27 912.25 147.69 913.98 147.24C915.7 146.8 917.46 146.5 919.24 146.34C921.02 146.19 922.8 146.18 924.58 146.32C926.36 146.46 928.12 146.74 929.85 147.17C930.38 147.27 930.9 147.41 931.42 147.59C931.93 147.76 932.43 147.97 932.92 148.21C933.4 148.44 933.87 148.72 934.32 149.02C934.77 149.32 935.2 149.65 935.6 150.01C936.84 151.24 937.58 152.88 938.67 154.24C942.2 158.64 948.5 159.5 954.13 160.5C959.76 161.5 966.12 163.67 967.97 168.97C968.07 169.28 968.16 169.58 968.23 169.9C968.3 170.21 968.36 170.53 968.41 170.85C968.45 171.16 968.48 171.48 968.49 171.81C968.51 172.13 968.51 172.45 968.49 172.77C968.45 173.4 968.39 174.04 968.32 174.67C968.25 175.3 968.16 175.93 968.06 176.55C967.96 177.18 967.85 177.8 967.72 178.42C967.6 179.05 967.46 179.66 967.3 180.28C967.3 180.28 967.3 180.29 967.3 180.31C967.26 180.47 967.24 180.63 967.22 180.79C967.21 180.95 967.22 181.11 967.23 181.27C967.25 181.43 967.28 181.59 967.33 181.75C967.38 181.9 967.44 182.06 967.51 182.2C968.39 183.63 970.58 183.03 972.24 183.37C975.43 184.03 976.25 188.05 976.37 191.24C976.5 194.93 976.61 198.59 976.67 202.24C976.67 202.66 976.67 203.09 976.67 203.52C976.68 203.78 976.68 204.05 976.67 204.31C976.66 204.57 976.64 204.84 976.61 205.1C976.58 205.36 976.54 205.62 976.5 205.88C976.45 206.14 976.39 206.39 976.33 206.65C976.16 207.13 975.96 207.59 975.73 208.05C975.51 208.5 975.26 208.94 974.99 209.37C974.72 209.8 974.43 210.21 974.11 210.61C973.8 211.01 973.46 211.39 973.11 211.75L960.62 226.45C955.73 232.2 950.58 238.79 950.2 246.03C950.2 246.52 950.2 247 950.2 247.5C950.54 248.24 950.92 248.96 951.34 249.66C951.76 250.35 952.23 251.02 952.73 251.66C953.24 252.29 953.78 252.9 954.36 253.47C954.94 254.04 955.55 254.57 956.2 255.07L956.68 255.42C956.73 255.44 965.71 258.83 989.48 272.5C1013.32 286.21 1006.48 317.15 1006.48 317.15ZM836.28 764.04C836.28 764.04 836.65 764.25 837.28 764.57L836.28 764.04Z"></path><path id="Layer" class="shp7" d="M977.15 640.26C986.01 665.74 975.67 707.09 970.87 725.55C966.07 744.01 964.59 766.18 964.59 766.18C945.76 769.13 932.1 765.43 932.1 765.43L939.85 727.43C934.31 704.91 939.85 644.72 939.85 644.72C939.85 644.72 927.3 621.46 926.19 586.01C925.1 551.11 916.5 539.84 916.19 539.49L916.19 539.49C898.47 548.72 875.94 647.69 875.94 647.69C877.79 671.69 875.57 708.61 868.19 728.55C867.07 731.71 866.12 734.92 865.32 738.17C864.53 741.42 863.9 744.71 863.43 748.03C862.97 751.34 862.67 754.68 862.54 758.02C862.41 761.37 862.45 764.72 862.65 768.06C860.07 770.24 856.48 770.61 852.6 769.99C842.09 768.24 829.48 759.16 829.48 759.16C829.48 759.16 833.48 651.35 836.48 647.28C839.48 643.21 836.48 619.95 836.48 619.95L841.27 582.29C841.27 582.29 840.54 518.4 847.55 507.29C853.61 497.72 855 480.91 855.27 476.5C855.27 475.8 855.33 475.41 855.33 475.41L866.01 462.61C866.01 462.61 969.41 454.86 977.16 462.61C979.07 464.52 980.24 468.84 980.94 474.29C983.07 491.04 980.63 518.36 980.63 518.36C980.63 518.36 977.53 538.67 973.1 559.36C972.44 562.45 971.93 565.58 971.6 568.72C971.27 571.87 971.1 575.03 971.1 578.19C971.1 581.35 971.27 584.51 971.6 587.66C971.93 590.8 972.44 593.93 973.1 597.02C972.73 600.64 972.54 604.28 972.53 607.93C972.52 611.57 972.68 615.21 973.02 618.84C973.36 622.46 973.87 626.07 974.56 629.65C975.25 633.23 976.12 636.77 977.15 640.26Z"></path><path id="Layer" class="shp8" d="M970.69 802.18C966.07 808.27 938.93 805.68 934.31 803.79C931.49 802.62 931.71 797.32 932.47 791.85C932.95 788.37 933.66 784.85 933.95 782.24C934.69 775.59 931.73 762.11 931.73 762.11C931.73 762.11 937.83 768.57 939.3 762.11C939.95 759.29 942.22 757.84 944.57 757.11C945.35 756.87 946.16 756.71 946.97 756.62C947.78 756.52 948.6 756.5 949.42 756.55C950.24 756.6 951.05 756.73 951.84 756.92C952.64 757.11 953.41 757.38 954.16 757.71C958.95 759.79 966.96 764.23 965.52 770.23C963.52 778.71 970.69 790.74 970.69 790.74C970.83 790.92 970.96 791.1 971.09 791.28C971.21 791.47 971.33 791.66 971.44 791.85C971.56 792.05 971.66 792.24 971.76 792.45C971.86 792.65 971.95 792.85 972.03 793.06C972.34 793.81 972.56 794.59 972.66 795.39C972.76 796.19 972.75 797.01 972.64 797.81C972.52 798.61 972.29 799.39 971.96 800.13C971.63 800.87 971.21 801.56 970.69 802.18L970.69 802.18Z"></path><path id="Layer" class="shp9" d="M970.69 802.18C966.07 808.27 938.93 805.68 934.31 803.79C931.49 802.62 931.71 797.32 932.47 791.85C935.38 793.21 940.34 794.35 948.6 793.58C949.08 793.54 949.57 793.5 950.05 793.47C950.53 793.44 951.02 793.41 951.5 793.4C951.99 793.38 952.47 793.38 952.96 793.38C953.44 793.38 953.93 793.38 954.41 793.4C955.88 793.47 957.35 793.51 958.82 793.53C960.29 793.55 961.76 793.54 963.23 793.51C964.7 793.49 966.16 793.43 967.63 793.35C969.1 793.28 970.57 793.18 972.03 793.05C972.35 793.8 972.56 794.58 972.66 795.38C972.76 796.19 972.76 797 972.64 797.8C972.52 798.6 972.29 799.39 971.97 800.13C971.64 800.87 971.21 801.56 970.69 802.18L970.69 802.18Z"></path><path id="Layer" class="shp9" d="M875.97 647.65C877.82 671.65 875.6 708.57 868.22 728.51C867.1 731.67 866.15 734.88 865.35 738.13C864.56 741.38 863.93 744.67 863.46 747.99C863 751.3 862.7 754.64 862.57 757.98C862.44 761.33 862.48 764.68 862.68 768.02C860.1 770.2 856.51 770.57 852.63 769.95C854.86 754.35 864.35 687.27 870.48 634.26C877.36 573.89 909.76 532.35 909.76 532.35L916.22 539.46C898.48 548.68 875.97 647.65 875.97 647.65Z"></path><path id="Layer" class="shp10" d="M959.61 259.56L955.1 281.71L933.02 318.82L905.79 307.19C905.79 307.19 868.79 268.42 892.04 262.88C892.73 262.73 893.42 262.55 894.09 262.33C894.77 262.11 895.43 261.85 896.08 261.56C896.73 261.28 897.36 260.95 897.98 260.6C898.59 260.24 899.19 259.86 899.76 259.44C904.33 256 905.76 250.99 905.76 246.09C905.76 238 901.98 230.2 901.98 230.2L949.61 215.2C949.12 216.76 948.68 218.34 948.29 219.93C947.9 221.52 947.56 223.13 947.28 224.74C946.99 226.35 946.76 227.97 946.58 229.6C946.39 231.23 946.27 232.86 946.19 234.5C945.83 247.5 950.65 253.86 954.6 256.91C954.97 257.21 955.35 257.49 955.75 257.76C956.14 258.02 956.55 258.26 956.97 258.48C957.39 258.71 957.83 258.91 958.27 259.09C958.71 259.27 959.15 259.42 959.61 259.56Z"></path><path id="Layer" class="shp9" d="M949.64 215.25C949.15 216.81 948.71 218.39 948.32 219.98C947.93 221.57 947.59 223.18 947.31 224.79C947.02 226.4 946.79 228.02 946.61 229.65C946.42 231.28 946.3 232.91 946.22 234.55C946 234.81 945.78 235.06 945.56 235.31C945.34 235.57 945.11 235.81 944.88 236.06C944.65 236.31 944.41 236.55 944.17 236.79C943.94 237.02 943.69 237.26 943.45 237.49C941 239.83 938.25 241.83 935.27 243.43C932.29 245.04 929.11 246.23 925.81 246.98C922.51 247.74 919.12 248.04 915.74 247.89C912.36 247.74 909.01 247.14 905.79 246.09C905.79 238 902.01 230.2 902.01 230.2L949.64 215.25Z"></path><path id="Layer" class="shp10" d="M955.1 209.16C955.1 224.39 945.91 238.13 931.84 243.95C917.76 249.77 901.56 246.54 890.79 235.76C880.03 224.98 876.82 208.78 882.66 194.71C888.5 180.64 902.25 171.47 917.48 171.49C922.43 171.47 927.33 172.44 931.91 174.33C936.48 176.21 940.64 178.99 944.13 182.49C947.63 185.99 950.4 190.15 952.28 194.73C954.17 199.31 955.12 204.21 955.1 209.16Z"></path><path id="Layer" class="shp9" d="M959.61 259.56L955.1 281.71L933.02 318.82L905.79 307.19C905.79 307.19 868.79 268.42 892.04 262.88C892.73 262.73 893.42 262.55 894.09 262.33C894.77 262.11 895.43 261.85 896.08 261.56C896.73 261.28 897.36 260.95 897.98 260.6C898.59 260.24 899.19 259.86 899.76 259.44C895.56 270.99 912.9 295.01 912.9 295.01C914.9 298.01 919.55 296.11 919.55 296.11C930.71 294.43 951.28 262.3 954.63 256.96C955 257.26 955.38 257.53 955.77 257.79C956.17 258.05 956.57 258.29 956.99 258.5C957.41 258.72 957.84 258.92 958.28 259.1C958.71 259.27 959.16 259.43 959.61 259.56Z"></path><path id="Layer" class="shp9" d="M980.93 474.35C974.38 475.84 938.1 483.88 924.34 481.87C909.21 479.65 879.77 478.18 879.77 478.18C879.77 478.18 861.03 479.18 855.26 476.56C855.26 475.86 855.32 475.47 855.32 475.47L866 462.67C866 462.67 969.4 454.92 977.15 462.67C979.06 464.56 980.23 468.88 980.93 474.35Z"></path><path id="Layer" class="shp11" d="M912.9 296.11C912.9 296.11 893.42 269.11 900.76 258.62L867.85 272.11C867.85 272.11 848.04 269.71 840.85 299.27C840.56 300.5 840.32 301.73 840.13 302.98C839.93 304.22 839.78 305.47 839.68 306.72C839.58 307.98 839.52 309.24 839.51 310.5C839.5 311.76 839.54 313.01 839.62 314.27C839.88 318.73 839.28 326.58 834.2 336.73C826.07 352.98 827.92 390.27 844.54 393.97C861.16 397.67 867.06 395.81 867.06 395.81C867.06 395.81 864.85 463.39 855.25 471.14C845.65 478.89 879.72 477.05 879.72 477.05C879.72 477.05 909.16 478.53 924.3 480.74C939.44 482.95 981.9 472.99 981.9 472.99C981.9 472.99 975.62 444.55 973.41 426.46C971.2 408.37 966.02 369.84 966.02 369.84L1003.69 318.84C1003.69 318.84 1010.33 288.01 987.07 274.35C963.81 260.69 955.07 257.35 955.07 257.35C955.07 257.35 931.73 295.35 919.55 297.22C919.55 297.22 914.92 299.08 912.9 296.11Z"></path><path id="Layer" class="shp9" d="M869.7 306.82C869.7 306.82 869.33 319.01 871.54 323.82C873.75 328.63 881.88 355.21 881.88 355.21L863.42 355.21C863.42 355.21 873.42 344.5 872.65 339.33C871.88 334.16 869.7 306.82 869.7 306.82Z"></path><path id="Layer" class="shp10" d="M924.35 398.77C924.35 398.77 883.57 388.77 879.77 380.3C875.97 371.83 865.48 352.81 865.48 352.81L869.78 347.01L889.62 362.58C889.62 362.58 913.25 381.41 924.33 383.26C935.41 385.11 924.35 398.77 924.35 398.77Z"></path><path id="Layer" class="shp12" d="M924.35 398.77C924.35 398.77 883.57 388.77 879.77 380.3C875.97 371.83 865.48 352.81 865.48 352.81L869.78 347.01L889.62 362.58C889.62 362.58 913.25 381.41 924.33 383.26C935.41 385.11 924.35 398.77 924.35 398.77Z"></path><path id="Layer" class="shp10" d="M959.61 350.77L959.61 372.89L956.05 372.89C951.68 372.89 947.31 373.17 942.98 373.72C938.64 374.27 934.35 375.1 930.12 376.2C925.89 377.29 921.73 378.65 917.67 380.27C913.61 381.89 909.66 383.77 905.84 385.89L899.18 389.59L897.39 390.59L885.94 364.81L896.65 355.21L897.2 355.21C899.82 355.46 911.15 356.41 915.95 354.79C920.51 353.24 926.17 348.33 939.6 351.79C946.22 353.48 951.87 360.9 958.29 358.58L959.61 350.77Z"></path><path id="Layer" class="shp9" d="M995.24 310.52L1002.63 318.82L1002.63 338.95C1002.63 338.95 996.35 402.46 976.41 409.48C956.47 416.5 920.88 405.41 920.88 405.41C920.88 405.41 911.68 381.04 915.98 379.57C920.28 378.1 953.98 369.19 953.98 369.19C953.98 369.19 953.51 331.93 960.89 320.85C960.89 320.85 956.09 286.15 972.71 285.41C989.33 284.67 995.24 310.52 995.24 310.52Z"></path><path id="Layer" class="shp11" d="M996.35 310.52L1003.74 318.82L1003.74 338.95C1003.74 338.95 997.48 402.46 977.48 409.48C957.48 416.5 921.94 405.41 921.94 405.41C921.94 405.41 912.75 381.04 917.05 379.57C921.35 378.1 955.05 369.19 955.05 369.19C955.05 369.19 954.57 331.93 961.96 320.85C961.96 320.85 957.16 286.15 973.78 285.41C990.4 284.67 996.35 310.52 996.35 310.52Z"></path><path id="Layer" class="shp9" d="M944.77 225.16C944.92 222.73 944.97 220.16 943.93 217.97C942.89 215.78 940.45 214.03 938.07 214.59C934.91 215.33 933.55 219.44 930.45 220.43C927.84 221.26 924.99 219.43 923.75 216.97C922.51 214.51 922.47 211.67 922.46 208.97C922.46 205.89 922.46 202.8 922.46 199.72C922.46 196.36 922.35 192.72 920.28 190.1C917.71 186.81 911.66 185.38 907.62 185.51C906.95 185.52 906.29 185.59 905.64 185.72C904.99 185.85 904.35 186.04 903.73 186.29C903.11 186.54 902.52 186.84 901.96 187.2C901.4 187.56 900.87 187.97 900.39 188.43C898.23 190.26 895.73 191.62 892.78 191.13C892.17 191.04 891.58 190.86 891.02 190.6C890.46 190.34 889.94 190.01 889.47 189.61C889 189.2 888.59 188.74 888.26 188.22C887.92 187.7 887.66 187.14 887.48 186.55L887.48 186.43C893.83 178.04 903.39 172.69 913.86 171.68C924.33 170.66 934.75 174.06 942.59 181.07C950.44 188.07 954.99 198.04 955.16 208.55C955.33 219.07 951.1 229.18 943.48 236.43C943.64 235.5 943.79 234.56 943.92 233.63C944.06 232.69 944.18 231.75 944.28 230.81C944.39 229.87 944.49 228.93 944.57 227.99C944.65 227.05 944.72 226.1 944.77 225.16L944.77 225.16Z"></path><path id="Layer" class="shp13" d="M892.76 189.99C892.15 189.9 891.56 189.72 891 189.46C890.44 189.2 889.91 188.86 889.45 188.46C888.98 188.06 888.57 187.59 888.24 187.07C887.9 186.55 887.64 185.99 887.46 185.4C887.15 184.21 887.23 182.94 886.88 181.75C886.02 178.85 882.88 177.34 880.88 175.14C876.72 170.72 876.99 163.46 879.94 158.14C882.32 153.86 886.94 150.25 891.75 151.08C894.75 151.6 897.32 153.73 900.35 153.92C903.38 154.11 905.92 152.47 908.58 151.26C910.17 150.54 911.81 149.96 913.49 149.52C915.18 149.07 916.9 148.77 918.63 148.62C920.37 148.47 922.11 148.46 923.85 148.6C925.58 148.74 927.3 149.02 928.99 149.45C929.51 149.55 930.02 149.69 930.53 149.87C931.03 150.04 931.52 150.25 931.99 150.49C932.47 150.72 932.92 150.99 933.36 151.29C933.8 151.59 934.22 151.92 934.61 152.28C934.88 152.62 935.14 152.96 935.4 153.3C935.66 153.65 935.91 154 936.16 154.35C936.41 154.7 936.66 155.05 936.9 155.41C937.14 155.77 937.38 156.13 937.61 156.49C941.06 160.88 947.22 161.74 952.71 162.73C958.2 163.72 964.4 165.89 966.21 171.17C967.4 174.67 966.21 178.47 965.56 182.11C965.5 182.29 965.46 182.48 965.44 182.67C965.42 182.86 965.41 183.06 965.42 183.25C965.43 183.44 965.46 183.63 965.51 183.82C965.56 184 965.62 184.19 965.7 184.36C966.56 185.78 968.7 185.19 970.32 185.53C973.44 186.18 974.24 190.19 974.32 193.37C974.45 197.01 974.55 200.65 974.62 204.29C974.71 205.13 974.7 205.98 974.6 206.82C974.49 207.66 974.28 208.48 973.98 209.27C973.68 210.06 973.29 210.82 972.81 211.51C972.34 212.21 971.78 212.85 971.15 213.42L958.96 228.07C953.55 234.57 947.81 242.14 948.9 250.52C946.34 251.67 943.3 249.45 942.46 246.77C941.62 244.09 942.3 241.21 942.86 238.46C943.11 237.27 943.33 236.08 943.54 234.88C943.74 233.69 943.92 232.49 944.08 231.28C944.24 230.08 944.38 228.88 944.5 227.67C944.62 226.46 944.72 225.25 944.79 224.04C944.94 221.6 944.99 219.04 943.95 216.85C942.91 214.66 940.47 212.85 938.09 213.46C934.93 214.2 933.57 218.31 930.47 219.3C927.87 220.13 925.01 218.3 923.77 215.84C922.53 213.38 922.49 210.54 922.48 207.84L922.48 198.58C922.48 195.23 922.37 191.58 920.3 188.96C917.73 185.67 911.68 184.24 907.64 184.37C906.97 184.38 906.31 184.45 905.66 184.58C905.01 184.71 904.37 184.9 903.75 185.15C903.13 185.4 902.54 185.71 901.98 186.06C901.42 186.42 900.89 186.83 900.41 187.29C898.21 189.12 895.71 190.47 892.76 189.99Z"></path><path id="Layer" class="shp9" d="M901.27 305.9L912.83 353.4C912.83 353.4 921.95 353.35 901.27 305.9Z"></path><path id="Layer" class="shp9" d="M940.78 297.96C940.78 297.96 925.64 322.76 931.55 348.39L934.37 348.6C934.37 348.6 929.33 336.73 940.78 297.96Z"></path><path id="Layer" class="shp9" d="M950.38 438.28C950.38 438.28 968.97 432.13 970.32 446.4C970.32 446.4 966.81 436.62 950.38 438.28Z"></path><path id="Layer" class="shp9" d="M896.65 356.35C896.65 356.35 892.96 382.2 899.65 392.54C899.65 392.54 886.13 398.08 867.15 396.97L864.9 356.35L896.65 356.35Z"></path><path id="Layer" class="shp9" d="M899.18 389.58L897.39 390.58L885.94 364.8L896.65 355.2L897.2 355.2L897.2 355.2C897.03 356.44 894.05 378.64 899.18 389.58Z"></path><path id="Layer" class="shp11" d="M896.65 355.2C896.65 355.2 892.96 381.04 899.65 391.38C899.65 391.38 886.13 396.92 867.15 395.81L854.23 355.2L896.65 355.2Z"></path><path id="Layer" class="shp8" d="M864.71 786.46C864.6 787.37 864.35 788.27 863.95 789.1C863.55 789.93 863.02 790.69 862.38 791.34C861.73 792 860.98 792.55 860.16 792.96C859.34 793.37 858.45 793.65 857.54 793.77C847.54 795.27 823.36 799.09 817.26 801.99C809.51 805.68 778.86 803.1 777.38 799.41C777.28 799.04 777.21 798.66 777.18 798.28C777.15 797.9 777.16 797.52 777.2 797.14C777.25 796.76 777.33 796.38 777.45 796.02C777.57 795.66 777.72 795.3 777.91 794.97C778.17 794.41 778.48 793.87 778.83 793.36C779.18 792.85 779.57 792.36 779.99 791.91C780.41 791.46 780.87 791.04 781.36 790.66C781.85 790.28 782.37 789.94 782.91 789.64C783.09 789.54 783.26 789.44 783.45 789.35C783.63 789.26 783.81 789.17 784 789.08C784.18 789 784.37 788.92 784.56 788.85C784.75 788.77 784.94 788.7 785.13 788.64C790.9 786.71 801.8 782.64 804.75 778.34C804.75 778.34 818.34 766.45 822.21 760.02C822.57 759.39 823.01 758.81 823.52 758.29C824.02 757.77 824.59 757.31 825.21 756.92C825.82 756.54 826.49 756.23 827.18 756.01C827.87 755.79 828.59 755.65 829.31 755.6C832.55 755.45 836.15 757.08 837.62 764.17C837.62 764.17 855.34 774.28 860.13 765.41C860.13 765.41 860.87 779.03 863.81 782.75L863.81 782.75C864 783.01 864.17 783.3 864.31 783.59C864.45 783.89 864.56 784.2 864.63 784.51C864.71 784.83 864.76 785.16 864.77 785.48C864.78 785.81 864.76 786.14 864.71 786.46L864.71 786.46Z"></path><path id="Layer" class="shp9" d="M864.71 786.46C864.6 787.37 864.35 788.27 863.95 789.1C863.55 789.93 863.02 790.69 862.38 791.34C861.73 792 860.98 792.55 860.16 792.96C859.34 793.37 858.45 793.65 857.54 793.77C847.54 795.27 823.36 799.09 817.26 801.99C809.51 805.68 778.86 803.1 777.38 799.41C777.28 799.04 777.21 798.66 777.18 798.28C777.15 797.9 777.16 797.52 777.2 797.14C777.25 796.76 777.33 796.38 777.45 796.02C777.57 795.66 777.72 795.3 777.91 794.97C778.17 794.41 778.48 793.87 778.83 793.36C779.18 792.85 779.57 792.36 779.99 791.91C780.41 791.46 780.87 791.04 781.36 790.66C781.85 790.28 782.37 789.94 782.91 789.64C787.91 792.96 799 796.2 823.4 792.39C846.67 788.76 858.19 785.2 863.81 782.77L863.81 782.77C864 783.03 864.17 783.31 864.31 783.61C864.44 783.9 864.55 784.21 864.63 784.53C864.71 784.84 864.75 785.16 864.77 785.49C864.78 785.81 864.76 786.14 864.71 786.46Z"></path><g id="Layer" style="opacity: 0.102"><path id="Layer" class="shp14" d="M965.48 182.65L965.48 182.47C966.01 179.7 966.8 176.84 966.62 174.08C966.56 174.65 966.49 175.21 966.42 175.78C966.34 176.34 966.25 176.9 966.16 177.46C966.06 178.02 965.96 178.58 965.85 179.14C965.73 179.7 965.61 180.26 965.48 180.81C965.45 180.96 965.42 181.11 965.4 181.27C965.38 181.42 965.38 181.58 965.38 181.73C965.38 181.88 965.38 182.04 965.4 182.19C965.42 182.35 965.45 182.5 965.48 182.65L965.48 182.65Z"></path><path id="Layer" class="shp14" d="M943.92 217.21C944.07 217.54 944.19 217.88 944.3 218.23C944.42 218.57 944.51 218.92 944.59 219.27C944.66 219.63 944.72 219.99 944.76 220.35C944.8 220.71 944.83 221.07 944.83 221.43C944.87 220.93 944.89 220.43 944.87 219.93C944.85 219.43 944.8 218.93 944.73 218.44C944.65 217.94 944.54 217.45 944.41 216.97C944.28 216.49 944.11 216.01 943.92 215.55C942.92 213.34 940.45 211.6 938.07 212.16C934.91 212.9 933.55 217.01 930.45 218C927.84 218.83 924.99 217 923.74 214.54C922.49 212.08 922.47 209.24 922.46 206.54C922.46 203.45 922.46 200.37 922.46 197.28C922.46 193.93 922.35 190.28 920.28 187.66C917.71 184.37 911.65 182.94 907.62 183.07C906.95 183.08 906.29 183.15 905.64 183.28C904.99 183.41 904.35 183.6 903.73 183.85C903.11 184.1 902.52 184.4 901.96 184.76C901.4 185.12 900.87 185.53 900.39 185.99C898.22 187.83 895.73 189.18 892.78 188.7C892.17 188.61 891.58 188.43 891.02 188.17C890.46 187.91 889.93 187.57 889.47 187.17C889 186.77 888.59 186.3 888.26 185.78C887.92 185.26 887.66 184.7 887.48 184.11C887.17 182.92 887.25 181.65 886.9 180.46C886.03 177.56 882.9 176.05 880.9 173.85C880.42 173.32 879.99 172.75 879.61 172.14C879.23 171.53 878.9 170.89 878.64 170.23C878.37 169.56 878.17 168.87 878.03 168.17C877.88 167.47 877.81 166.76 877.79 166.04C877.71 166.89 877.72 167.75 877.82 168.6C877.92 169.45 878.1 170.28 878.37 171.1C878.63 171.91 878.98 172.69 879.41 173.43C879.83 174.17 880.33 174.87 880.9 175.51C882.98 177.71 886.07 179.23 886.9 182.13C887.25 183.31 887.17 184.58 887.48 185.77C887.66 186.36 887.92 186.92 888.26 187.44C888.59 187.96 889 188.43 889.47 188.83C889.93 189.23 890.46 189.57 891.02 189.83C891.58 190.09 892.17 190.27 892.78 190.36C895.78 190.84 898.22 189.49 900.39 187.65C900.87 187.19 901.4 186.78 901.96 186.42C902.52 186.06 903.11 185.76 903.73 185.51C904.35 185.26 904.99 185.07 905.64 184.94C906.29 184.81 906.95 184.74 907.62 184.73C911.62 184.6 917.71 186.04 920.28 189.32C922.35 191.96 922.45 195.59 922.46 198.94C922.46 202.03 922.46 205.11 922.46 208.2C922.46 210.94 922.46 213.79 923.74 216.2C925.02 218.61 927.84 220.49 930.45 219.66C933.55 218.66 934.91 214.56 938.07 213.82C940.48 213.27 942.89 215 943.92 217.21Z"></path><path id="Layer" class="shp14" d="M974.27 207.04C974.1 207.51 973.91 207.98 973.69 208.43C973.48 208.88 973.23 209.32 972.97 209.75C972.71 210.17 972.42 210.59 972.11 210.98C971.81 211.38 971.48 211.76 971.13 212.12C967.07 217.01 963.01 221.89 958.94 226.77C953.81 232.94 948.37 240.08 948.77 247.95C949.14 240.73 954.17 234.16 958.94 228.43L971.13 213.79C971.48 213.43 971.81 213.05 972.11 212.65C972.42 212.25 972.71 211.84 972.97 211.41C973.23 210.98 973.47 210.54 973.69 210.09C973.91 209.64 974.1 209.17 974.27 208.7C974.35 208.37 974.41 208.04 974.46 207.71C974.51 207.38 974.55 207.05 974.58 206.71C974.6 206.38 974.62 206.04 974.62 205.71C974.62 205.37 974.61 205.03 974.59 204.7C974.59 204.9 974.58 205.09 974.56 205.29C974.55 205.49 974.53 205.68 974.5 205.88C974.48 206.08 974.44 206.27 974.4 206.46C974.37 206.66 974.32 206.85 974.27 207.04Z"></path><path id="Layer" class="shp14" d="M942.48 245.47C942.43 245.31 942.39 245.14 942.35 244.98C942.31 244.81 942.27 244.65 942.24 244.48C942.21 244.31 942.19 244.15 942.17 243.98C942.15 243.81 942.13 243.64 942.12 243.47C942.09 243.78 942.08 244.08 942.08 244.39C942.09 244.7 942.1 245 942.13 245.31C942.16 245.61 942.21 245.92 942.26 246.22C942.32 246.52 942.39 246.82 942.48 247.11C943.32 249.79 946.37 252 948.93 250.85C948.86 250.31 948.82 249.77 948.8 249.23C946.22 250.29 943.26 248.11 942.48 245.47Z"></path></g><path id="Layer" class="shp9" d="M819.74 763.35C819.74 763.35 823.6 770.14 837.58 764.16"></path><path id="Layer" class="shp9" d="M937.98 765.02C937.98 765.02 950.04 779.22 965.24 769.67"></path><path id="Layer" class="shp9" d="M973.09 597.05C973.09 597.05 964.56 602.38 964.29 605.43C964.02 608.48 968.69 603.21 968.69 603.21L973.09 597.05Z"></path><path id="Layer" class="shp9" d="M976.48 637.88C975.75 638.49 974.96 639.04 974.14 639.53C973.32 640.02 972.45 640.43 971.56 640.78C970.67 641.13 969.75 641.41 968.82 641.61C967.88 641.81 966.94 641.93 965.98 641.98C959.61 642.26 960.14 650.57 964.3 648.07C968.46 645.57 976.48 637.88 976.48 637.88Z"></path><path id="Layer" class="shp9" d="M978.07 643.21C978.07 643.21 973.98 663.31 970.66 659.43"></path><path id="Layer" class="shp1" d="M136.76 736.71C136.76 736.71 142.25 743.89 134.22 754.71C126.19 765.53 119.57 774.71 122.22 781.47C122.22 781.47 134.33 761.33 144.22 761.05C154.11 760.77 147.61 748.82 136.76 736.71Z"></path><path id="Layer" class="shp9" d="M136.76 736.71C136.88 736.88 136.99 737.06 137.1 737.24C137.21 737.42 137.31 737.61 137.4 737.79C137.5 737.98 137.58 738.17 137.66 738.37C137.74 738.56 137.81 738.76 137.88 738.96C147.5 750.26 152.63 760.81 143.38 761.08C134.77 761.32 124.38 776.73 121.96 780.62C121.98 780.69 122 780.77 122.02 780.84C122.05 780.92 122.07 780.99 122.09 781.06C122.12 781.14 122.14 781.21 122.17 781.28C122.2 781.36 122.22 781.43 122.25 781.5C122.28 781.57 134.36 761.36 144.25 761.08C154.14 760.8 147.61 748.82 136.76 736.71Z"></path><path id="Layer" class="shp15" d="M146.97 745.86C146.97 748.39 146.69 750.44 146.34 750.44C145.99 750.44 145.7 748.39 145.7 745.86C145.7 743.33 146.06 744.53 146.41 744.53C146.76 744.53 146.97 743.35 146.97 745.86Z"></path><path id="Layer" class="shp15" d="M150.48 748.88C148.26 750.09 146.32 750.82 146.15 750.52C145.98 750.22 147.65 748.98 149.87 747.77C152.09 746.56 151.21 747.44 151.38 747.77C151.55 748.1 152.7 747.67 150.48 748.88Z"></path><path id="Layer" class="shp1" d="M107.74 736.71C107.74 736.71 102.25 743.89 110.28 754.71C118.31 765.53 124.93 774.71 122.28 781.47C122.28 781.47 110.17 761.33 100.28 761.05C90.39 760.77 96.9 748.82 107.74 736.71Z"></path><path id="Layer" class="shp9" d="M107.74 736.71C107.62 736.88 107.51 737.06 107.4 737.24C107.29 737.42 107.19 737.61 107.1 737.8C107.01 737.98 106.92 738.18 106.84 738.37C106.76 738.56 106.69 738.76 106.62 738.96C97 750.26 91.87 760.81 101.12 761.08C109.74 761.32 120.12 776.73 122.54 780.62C122.52 780.69 122.5 780.77 122.48 780.84C122.46 780.92 122.43 780.99 122.41 781.06C122.39 781.14 122.36 781.21 122.33 781.28C122.31 781.36 122.28 781.43 122.25 781.5C122.22 781.57 110.14 761.36 100.25 761.08C90.36 760.8 96.9 748.82 107.74 736.71Z"></path><path id="Layer" class="shp15" d="M97.53 745.86C97.53 748.39 97.81 750.44 98.16 750.44C98.51 750.44 98.8 748.39 98.8 745.86C98.8 743.33 98.44 744.53 98.09 744.53C97.74 744.53 97.53 743.35 97.53 745.86Z"></path><path id="Layer" class="shp15" d="M94.03 748.88C96.25 750.09 98.18 750.82 98.35 750.52C98.52 750.22 96.85 748.98 94.63 747.77C92.41 746.56 93.29 747.44 93.12 747.77C92.95 748.1 91.81 747.67 94.03 748.88Z"></path><path id="Layer" class="shp16" d="M99.28 780.56C99.28 780.56 114.64 780.09 119.28 776.79C123.92 773.49 142.9 769.56 144.05 774.85C145.2 780.14 167.13 801.14 149.79 801.28C132.45 801.42 109.5 798.58 104.88 795.76C100.26 792.94 99.28 780.56 99.28 780.56Z"></path><path id="Layer" class="shp17" d="M150.09 799.44C132.75 799.58 109.8 796.74 105.18 793.92C101.66 791.78 100.26 784.09 99.79 780.54L99.28 780.54C99.28 780.54 100.28 792.93 104.87 795.74C109.46 798.55 132.44 801.4 149.78 801.26C154.78 801.26 156.52 799.44 156.42 796.8C155.73 798.41 153.82 799.41 150.09 799.44Z"></path></svg>